[
  {
    "date": "12/1/2019, 1:37:16 PM",
    "starting_player": "bottom",
    "gameDetail": {
      "round": "東",
      "hand": 1,
      "repeater": 0,
      "deposit": 0,
      "dealer": "bottom"
    },
    "playerDetail": [
      {
        "name": "player1",
        "position": "top",
        "origin": 25000,
        "point": 25000
      },
      {
        "name": "player2",
        "position": "left",
        "origin": 25000,
        "point": 25000
      },
      {
        "name": "player3",
        "position": "bottom",
        "origin": 25000,
        "point": 25000
      },
      {
        "name": "player4",
        "position": "right",
        "origin": 25000,
        "point": 25000
      }
    ]
  },
  {
    "date": "12/1/2019, 1:37:20 PM",
    "gameDetail": {
      "round": "東",
      "hand": 1,
      "repeater": 0,
      "deposit": 0,
      "dealer": "bottom"
    },
    "handDetail": {
      "state": "自摸",
      "han_fu": "三倍役滿",
      "point": 144000
    },
    "playerDetail": [
      {
        "name": "player1",
        "position": "top",
        "origin": 25000,
        "changed": -48000,
        "point": -23000,
        "riichi": false
      },
      {
        "name": "player2",
        "position": "left",
        "origin": 25000,
        "changed": -48000,
        "point": -23000,
        "riichi": false
      },
      {
        "name": "player3",
        "position": "bottom",
        "origin": 25000,
        "changed": 144000,
        "point": 169000,
        "riichi": false
      },
      {
        "name": "player4",
        "position": "right",
        "origin": 25000,
        "changed": -48000,
        "point": -23000,
        "riichi": false
      }
    ]
  },
  {
    "date": "12/1/2019, 1:37:20 PM",
    "playerDetail": [
      {
        "name": "player3",
        "position": "bottom",
        "rank": 1,
        "point": 169000,
        "score": 139,
        "ranking_score": 40,
        "total_score": 179
      },
      {
        "name": "player4",
        "position": "right",
        "rank": 2,
        "point": -23000,
        "score": -53,
        "ranking_score": 10,
        "total_score": -43
      },
      {
        "name": "player1",
        "position": "top",
        "rank": 3,
        "point": -23000,
        "score": -53,
        "ranking_score": -10,
        "total_score": -63
      },
      {
        "name": "player2",
        "position": "left",
        "rank": 4,
        "point": -23000,
        "score": -53,
        "ranking_score": -20,
        "total_score": -73
      }
    ]
  }
]
