[
  {
    "date": "12/8/2019, 1:03:36 AM",
    "starting_player": "bottom",
    "gameDetail": {
      "round": "東",
      "hand": 1,
      "repeater": 0,
      "deposit": 0,
      "dealer": "bottom"
    },
    "playerDetail": [
      {
        "name": "player1",
        "position": "top",
        "origin": 25000,
        "point": 25000
      },
      {
        "name": "player2",
        "position": "left",
        "origin": 25000,
        "point": 25000
      },
      {
        "name": "player3",
        "position": "bottom",
        "origin": 25000,
        "point": 25000
      },
      {
        "name": "player4",
        "position": "right",
        "origin": 25000,
        "point": 25000
      }
    ]
  },
  {
    "date": "12/8/2019, 1:03:38 AM",
    "gameDetail": {
      "round": "東",
      "hand": 1,
      "repeater": 0,
      "deposit": 0,
      "dealer": "bottom"
    },
    "handDetail": {
      "state": "流局"
    },
    "playerDetail": [
      {
        "name": "player1",
        "position": "top",
        "origin": 25000,
        "changed": 0,
        "point": 25000,
        "riichi": false
      },
      {
        "name": "player2",
        "position": "left",
        "origin": 25000,
        "changed": 0,
        "point": 25000,
        "riichi": false
      },
      {
        "name": "player3",
        "position": "bottom",
        "origin": 25000,
        "changed": 0,
        "point": 25000,
        "riichi": false
      },
      {
        "name": "player4",
        "position": "right",
        "origin": 25000,
        "changed": 0,
        "point": 25000,
        "riichi": false
      }
    ]
  },
  {
    "date": "12/8/2019, 1:03:39 AM",
    "gameDetail": {
      "round": "東",
      "hand": 2,
      "repeater": 1,
      "deposit": 0,
      "dealer": "right"
    },
    "handDetail": {
      "state": "流局"
    },
    "playerDetail": [
      {
        "name": "player1",
        "position": "top",
        "origin": 25000,
        "changed": 0,
        "point": 25000,
        "riichi": false
      },
      {
        "name": "player2",
        "position": "left",
        "origin": 25000,
        "changed": 0,
        "point": 25000,
        "riichi": false
      },
      {
        "name": "player3",
        "position": "bottom",
        "origin": 25000,
        "changed": 0,
        "point": 25000,
        "riichi": false
      },
      {
        "name": "player4",
        "position": "right",
        "origin": 25000,
        "changed": 0,
        "point": 25000,
        "riichi": false
      }
    ]
  },
  {
    "date": "12/8/2019, 1:03:39 AM",
    "gameDetail": {
      "round": "東",
      "hand": 3,
      "repeater": 2,
      "deposit": 0,
      "dealer": "top"
    },
    "handDetail": {
      "state": "流局"
    },
    "playerDetail": [
      {
        "name": "player1",
        "position": "top",
        "origin": 25000,
        "changed": 0,
        "point": 25000,
        "riichi": false
      },
      {
        "name": "player2",
        "position": "left",
        "origin": 25000,
        "changed": 0,
        "point": 25000,
        "riichi": false
      },
      {
        "name": "player3",
        "position": "bottom",
        "origin": 25000,
        "changed": 0,
        "point": 25000,
        "riichi": false
      },
      {
        "name": "player4",
        "position": "right",
        "origin": 25000,
        "changed": 0,
        "point": 25000,
        "riichi": false
      }
    ]
  },
  {
    "date": "12/8/2019, 1:03:40 AM",
    "gameDetail": {
      "round": "東",
      "hand": 4,
      "repeater": 3,
      "deposit": 0,
      "dealer": "left"
    },
    "handDetail": {
      "state": "流局"
    },
    "playerDetail": [
      {
        "name": "player1",
        "position": "top",
        "origin": 25000,
        "changed": 0,
        "point": 25000,
        "riichi": false
      },
      {
        "name": "player2",
        "position": "left",
        "origin": 25000,
        "changed": 0,
        "point": 25000,
        "riichi": false
      },
      {
        "name": "player3",
        "position": "bottom",
        "origin": 25000,
        "changed": 0,
        "point": 25000,
        "riichi": false
      },
      {
        "name": "player4",
        "position": "right",
        "origin": 25000,
        "changed": 0,
        "point": 25000,
        "riichi": false
      }
    ]
  },
  {
    "date": "12/8/2019, 1:03:40 AM",
    "gameDetail": {
      "round": "南",
      "hand": 1,
      "repeater": 4,
      "deposit": 0,
      "dealer": "bottom"
    },
    "handDetail": {
      "state": "流局"
    },
    "playerDetail": [
      {
        "name": "player1",
        "position": "top",
        "origin": 25000,
        "changed": 0,
        "point": 25000,
        "riichi": false
      },
      {
        "name": "player2",
        "position": "left",
        "origin": 25000,
        "changed": 0,
        "point": 25000,
        "riichi": false
      },
      {
        "name": "player3",
        "position": "bottom",
        "origin": 25000,
        "changed": 0,
        "point": 25000,
        "riichi": false
      },
      {
        "name": "player4",
        "position": "right",
        "origin": 25000,
        "changed": 0,
        "point": 25000,
        "riichi": false
      }
    ]
  },
  {
    "date": "12/8/2019, 1:03:41 AM",
    "gameDetail": {
      "round": "南",
      "hand": 2,
      "repeater": 5,
      "deposit": 0,
      "dealer": "right"
    },
    "handDetail": {
      "state": "流局"
    },
    "playerDetail": [
      {
        "name": "player1",
        "position": "top",
        "origin": 25000,
        "changed": 0,
        "point": 25000,
        "riichi": false
      },
      {
        "name": "player2",
        "position": "left",
        "origin": 25000,
        "changed": 0,
        "point": 25000,
        "riichi": false
      },
      {
        "name": "player3",
        "position": "bottom",
        "origin": 25000,
        "changed": 0,
        "point": 25000,
        "riichi": false
      },
      {
        "name": "player4",
        "position": "right",
        "origin": 25000,
        "changed": 0,
        "point": 25000,
        "riichi": false
      }
    ]
  },
  {
    "date": "12/8/2019, 1:03:41 AM",
    "gameDetail": {
      "round": "南",
      "hand": 3,
      "repeater": 6,
      "deposit": 0,
      "dealer": "top"
    },
    "handDetail": {
      "state": "流局"
    },
    "playerDetail": [
      {
        "name": "player1",
        "position": "top",
        "origin": 25000,
        "changed": 0,
        "point": 25000,
        "riichi": false
      },
      {
        "name": "player2",
        "position": "left",
        "origin": 25000,
        "changed": 0,
        "point": 25000,
        "riichi": false
      },
      {
        "name": "player3",
        "position": "bottom",
        "origin": 25000,
        "changed": 0,
        "point": 25000,
        "riichi": false
      },
      {
        "name": "player4",
        "position": "right",
        "origin": 25000,
        "changed": 0,
        "point": 25000,
        "riichi": false
      }
    ]
  },
  {
    "date": "12/8/2019, 1:03:42 AM",
    "gameDetail": {
      "round": "南",
      "hand": 4,
      "repeater": 7,
      "deposit": 0,
      "dealer": "left"
    },
    "handDetail": {
      "state": "流局"
    },
    "playerDetail": [
      {
        "name": "player1",
        "position": "top",
        "origin": 25000,
        "changed": 0,
        "point": 25000,
        "riichi": false
      },
      {
        "name": "player2",
        "position": "left",
        "origin": 25000,
        "changed": 0,
        "point": 25000,
        "riichi": false
      },
      {
        "name": "player3",
        "position": "bottom",
        "origin": 25000,
        "changed": 0,
        "point": 25000,
        "riichi": false
      },
      {
        "name": "player4",
        "position": "right",
        "origin": 25000,
        "changed": 0,
        "point": 25000,
        "riichi": false
      }
    ]
  },
  {
    "date": "12/8/2019, 1:03:42 AM",
    "gameDetail": {
      "round": "西",
      "hand": 1,
      "repeater": 8,
      "deposit": 0,
      "dealer": "bottom"
    },
    "handDetail": {
      "state": "流局"
    },
    "playerDetail": [
      {
        "name": "player1",
        "position": "top",
        "origin": 25000,
        "changed": 0,
        "point": 25000,
        "riichi": false
      },
      {
        "name": "player2",
        "position": "left",
        "origin": 25000,
        "changed": 0,
        "point": 25000,
        "riichi": false
      },
      {
        "name": "player3",
        "position": "bottom",
        "origin": 25000,
        "changed": 0,
        "point": 25000,
        "riichi": false
      },
      {
        "name": "player4",
        "position": "right",
        "origin": 25000,
        "changed": 0,
        "point": 25000,
        "riichi": false
      }
    ]
  },
  {
    "date": "12/8/2019, 1:03:44 AM",
    "gameDetail": {
      "round": "西",
      "hand": 2,
      "repeater": 9,
      "deposit": 0,
      "dealer": "right"
    },
    "handDetail": {
      "state": "流局"
    },
    "playerDetail": [
      {
        "name": "player1",
        "position": "top",
        "origin": 25000,
        "changed": 0,
        "point": 25000,
        "riichi": false
      },
      {
        "name": "player2",
        "position": "left",
        "origin": 25000,
        "changed": 0,
        "point": 25000,
        "riichi": false
      },
      {
        "name": "player3",
        "position": "bottom",
        "origin": 25000,
        "changed": 0,
        "point": 25000,
        "riichi": false
      },
      {
        "name": "player4",
        "position": "right",
        "origin": 25000,
        "changed": 0,
        "point": 25000,
        "riichi": false
      }
    ]
  },
  {
    "date": "12/8/2019, 1:03:49 AM",
    "gameDetail": {
      "round": "西",
      "hand": 3,
      "repeater": 10,
      "deposit": 0,
      "dealer": "top"
    },
    "handDetail": {
      "state": "自摸",
      "han_fu": "1_60",
      "point": 5000
    },
    "playerDetail": [
      {
        "name": "player1",
        "position": "top",
        "origin": 25000,
        "changed": -2000,
        "point": 23000,
        "riichi": false
      },
      {
        "name": "player2",
        "position": "left",
        "origin": 25000,
        "changed": -1500,
        "point": 23500,
        "riichi": false
      },
      {
        "name": "player3",
        "position": "bottom",
        "origin": 25000,
        "changed": 5000,
        "point": 30000,
        "riichi": false
      },
      {
        "name": "player4",
        "position": "right",
        "origin": 25000,
        "changed": -1500,
        "point": 23500,
        "riichi": false
      }
    ]
  },
  {
    "date": "12/8/2019, 1:03:49 AM",
    "playerDetail": [
      {
        "name": "player3",
        "position": "bottom",
        "rank": 1,
        "point": 30000,
        "score": 0,
        "ranking_score": 40,
        "total_score": 40
      },
      {
        "name": "player4",
        "position": "right",
        "rank": 2,
        "point": 23500,
        "score": -6.5,
        "ranking_score": 10,
        "total_score": 3.5
      },
      {
        "name": "player2",
        "position": "left",
        "rank": 3,
        "point": 23500,
        "score": -6.5,
        "ranking_score": -10,
        "total_score": -16.5
      },
      {
        "name": "player1",
        "position": "top",
        "rank": 4,
        "point": 23000,
        "score": -7,
        "ranking_score": -20,
        "total_score": -27
      }
    ]
  }
]
