[
  {
    "date": "12/1/2019, 3:11:18 PM",
    "starting_player": "right",
    "gameDetail": {
      "round": "東",
      "hand": 1,
      "repeater": 0,
      "deposit": 0,
      "dealer": "right"
    },
    "playerDetail": [
      {
        "name": "player1",
        "position": "top",
        "origin": 25000,
        "point": 25000
      },
      {
        "name": "player2",
        "position": "left",
        "origin": 25000,
        "point": 25000
      },
      {
        "name": "player3",
        "position": "bottom",
        "origin": 25000,
        "point": 25000
      },
      {
        "name": "player4",
        "position": "right",
        "origin": 25000,
        "point": 25000
      }
    ]
  },
  {
    "date": "12/1/2019, 3:11:21 PM",
    "gameDetail": {
      "round": "東",
      "hand": 1,
      "repeater": 0,
      "deposit": 0,
      "dealer": "right"
    },
    "handDetail": {
      "state": "自摸",
      "han_fu": "役滿",
      "point": 32000
    },
    "playerDetail": [
      {
        "name": "player1",
        "position": "top",
        "origin": 25000,
        "changed": -8000,
        "point": 17000,
        "riichi": false
      },
      {
        "name": "player2",
        "position": "left",
        "origin": 25000,
        "changed": -8000,
        "point": 17000,
        "riichi": false
      },
      {
        "name": "player3",
        "position": "bottom",
        "origin": 25000,
        "changed": 32000,
        "point": 57000,
        "riichi": false
      },
      {
        "name": "player4",
        "position": "right",
        "origin": 25000,
        "changed": -16000,
        "point": 9000,
        "riichi": false
      }
    ]
  },
  {
    "date": "12/1/2019, 3:11:38 PM",
    "gameDetail": {
      "round": "東",
      "hand": 2,
      "repeater": 0,
      "deposit": 0,
      "dealer": "top"
    },
    "handDetail": {
      "state": "和了",
      "han_fu": "役滿",
      "point": 32000
    },
    "playerDetail": [
      {
        "name": "player1",
        "position": "top",
        "origin": 17000,
        "changed": -32000,
        "point": -15000,
        "riichi": false
      },
      {
        "name": "player2",
        "position": "left",
        "origin": 17000,
        "changed": 0,
        "point": 17000,
        "riichi": false
      },
      {
        "name": "player3",
        "position": "bottom",
        "origin": 57000,
        "changed": 32000,
        "point": 89000,
        "riichi": false
      },
      {
        "name": "player4",
        "position": "right",
        "origin": 9000,
        "changed": 0,
        "point": 9000,
        "riichi": false
      }
    ]
  },
  {
    "date": "12/1/2019, 3:11:38 PM",
    "playerDetail": [
      {
        "name": "player3",
        "position": "bottom",
        "rank": 1,
        "point": 89000,
        "score": 59,
        "ranking_score": 40,
        "total_score": 99
      },
      {
        "name": "player2",
        "position": "left",
        "rank": 2,
        "point": 17000,
        "score": -13,
        "ranking_score": 10,
        "total_score": -3
      },
      {
        "name": "player4",
        "position": "right",
        "rank": 3,
        "point": 9000,
        "score": -21,
        "ranking_score": -10,
        "total_score": -31
      },
      {
        "name": "player1",
        "position": "top",
        "rank": 4,
        "point": -15000,
        "score": -45,
        "ranking_score": -20,
        "total_score": -65
      }
    ]
  }
]
