[
  {
    "date": "12/8/2019, 12:40:44 AM",
    "starting_player": "bottom",
    "gameDetail": {
      "round": "東",
      "hand": 1,
      "repeater": 0,
      "deposit": 0,
      "dealer": "bottom"
    },
    "playerDetail": [
      {
        "name": "player1",
        "position": "top",
        "origin": 25000,
        "point": 25000
      },
      {
        "name": "player2",
        "position": "left",
        "origin": 25000,
        "point": 25000
      },
      {
        "name": "player3",
        "position": "bottom",
        "origin": 25000,
        "point": 25000
      },
      {
        "name": "player4",
        "position": "right",
        "origin": 25000,
        "point": 25000
      }
    ]
  },
  {
    "date": "12/8/2019, 12:40:48 AM",
    "gameDetail": {
      "round": "東",
      "hand": 1,
      "repeater": 0,
      "deposit": 0,
      "dealer": "bottom"
    },
    "handDetail": {
      "state": "和了",
      "han_fu": "三倍滿",
      "point": 36000
    },
    "playerDetail": [
      {
        "name": "player1",
        "position": "top",
        "origin": 25000,
        "changed": -36000,
        "point": -11000,
        "riichi": false
      },
      {
        "name": "player2",
        "position": "left",
        "origin": 25000,
        "changed": 0,
        "point": 25000,
        "riichi": false
      },
      {
        "name": "player3",
        "position": "bottom",
        "origin": 25000,
        "changed": 36000,
        "point": 61000,
        "riichi": false
      },
      {
        "name": "player4",
        "position": "right",
        "origin": 25000,
        "changed": 0,
        "point": 25000,
        "riichi": false
      }
    ]
  },
  {
    "date": "12/8/2019, 12:40:51 AM",
    "playerDetail": [
      {
        "name": "player3",
        "position": "bottom",
        "rank": 1,
        "point": 61000,
        "score": 31,
        "ranking_score": 40,
        "total_score": 71
      },
      {
        "name": "player4",
        "position": "right",
        "rank": 2,
        "point": 25000,
        "score": -5,
        "ranking_score": 10,
        "total_score": 5
      },
      {
        "name": "player2",
        "position": "left",
        "rank": 3,
        "point": 25000,
        "score": -5,
        "ranking_score": -10,
        "total_score": -15
      },
      {
        "name": "player1",
        "position": "top",
        "rank": 4,
        "point": -11000,
        "score": -41,
        "ranking_score": -20,
        "total_score": -61
      }
    ]
  }
]
