[
  {
    "date": "12/15/2019, 3:24:37 PM",
    "starting_player": "bottom",
    "gameDetail": {
      "round": "東",
      "hand": 1,
      "repeater": 0,
      "deposit": 0,
      "dealer": "bottom"
    },
    "playerDetail": [
      {
        "name": "player1",
        "position": "top",
        "origin": 25000,
        "point": 25000
      },
      {
        "name": "player2",
        "position": "left",
        "origin": 25000,
        "point": 25000
      },
      {
        "name": "player3",
        "position": "bottom",
        "origin": 25000,
        "point": 25000
      },
      {
        "name": "player4",
        "position": "right",
        "origin": 25000,
        "point": 25000
      }
    ]
  },
  {
    "date": "12/15/2019, 3:24:39 PM",
    "gameDetail": {
      "round": "東",
      "hand": 1,
      "repeater": 0,
      "deposit": 0,
      "dealer": "bottom"
    },
    "handDetail": {
      "state": "自摸",
      "han_fu": "1_30",
      "point": 1500
    },
    "playerDetail": [
      {
        "name": "player1",
        "position": "top",
        "origin": 25000,
        "changed": -500,
        "point": 24500,
        "riichi": false
      },
      {
        "name": "player2",
        "position": "left",
        "origin": 25000,
        "changed": -500,
        "point": 24500,
        "riichi": false
      },
      {
        "name": "player3",
        "position": "bottom",
        "origin": 25000,
        "changed": 1500,
        "point": 26500,
        "riichi": false
      },
      {
        "name": "player4",
        "position": "right",
        "origin": 25000,
        "changed": -500,
        "point": 24500,
        "riichi": false
      }
    ]
  },
  {
    "date": "12/15/2019, 3:24:57 PM",
    "gameDetail": {
      "round": "東",
      "hand": 1,
      "repeater": 1,
      "deposit": 0,
      "dealer": "bottom"
    },
    "handDetail": {
      "state": "自摸",
      "han_fu": "役滿",
      "point": 48300
    },
    "playerDetail": [
      {
        "name": "player1",
        "position": "top",
        "origin": 24500,
        "changed": -16100,
        "point": 8400,
        "riichi": false
      },
      {
        "name": "player2",
        "position": "left",
        "origin": 24500,
        "changed": -16100,
        "point": 8400,
        "riichi": false
      },
      {
        "name": "player3",
        "position": "bottom",
        "origin": 26500,
        "changed": 48300,
        "point": 74800,
        "riichi": false
      },
      {
        "name": "player4",
        "position": "right",
        "origin": 24500,
        "changed": -16100,
        "point": 8400,
        "riichi": false
      }
    ]
  },
  {
    "date": "12/15/2019, 3:25:08 PM",
    "gameDetail": {
      "round": "東",
      "hand": 1,
      "repeater": 2,
      "deposit": 0,
      "dealer": "bottom"
    },
    "handDetail": {
      "state": "自摸",
      "han_fu": "1_30",
      "point": 2100
    },
    "playerDetail": [
      {
        "name": "player1",
        "position": "top",
        "origin": 8400,
        "changed": -700,
        "point": 7700,
        "riichi": false
      },
      {
        "name": "player2",
        "position": "left",
        "origin": 8400,
        "changed": -700,
        "point": 7700,
        "riichi": false
      },
      {
        "name": "player3",
        "position": "bottom",
        "origin": 74800,
        "changed": 2100,
        "point": 76900,
        "riichi": false
      },
      {
        "name": "player4",
        "position": "right",
        "origin": 8400,
        "changed": -700,
        "point": 7700,
        "riichi": false
      }
    ]
  },
  {
    "date": "12/15/2019, 3:25:29 PM",
    "gameDetail": {
      "round": "東",
      "hand": 1,
      "repeater": 3,
      "deposit": 0,
      "dealer": "bottom"
    },
    "handDetail": {
      "state": "自摸",
      "han_fu": "1_30",
      "point": 2400
    },
    "playerDetail": [
      {
        "name": "player1",
        "position": "top",
        "origin": 7700,
        "changed": -800,
        "point": 6900,
        "riichi": false
      },
      {
        "name": "player2",
        "position": "left",
        "origin": 7700,
        "changed": -800,
        "point": 6900,
        "riichi": false
      },
      {
        "name": "player3",
        "position": "bottom",
        "origin": 76900,
        "changed": 2400,
        "point": 79300,
        "riichi": false
      },
      {
        "name": "player4",
        "position": "right",
        "origin": 7700,
        "changed": -800,
        "point": 6900,
        "riichi": false
      }
    ]
  },
  {
    "date": "12/15/2019, 3:25:38 PM",
    "gameDetail": {
      "round": "東",
      "hand": 1,
      "repeater": 4,
      "deposit": 0,
      "dealer": "bottom"
    },
    "handDetail": {
      "state": "和了",
      "han_fu": "4_30",
      "point": 12800
    },
    "playerDetail": [
      {
        "name": "player1",
        "position": "top",
        "origin": 6900,
        "changed": -12800,
        "point": -5900,
        "riichi": false
      },
      {
        "name": "player2",
        "position": "left",
        "origin": 6900,
        "changed": 0,
        "point": 6900,
        "riichi": false
      },
      {
        "name": "player3",
        "position": "bottom",
        "origin": 79300,
        "changed": 12800,
        "point": 92100,
        "riichi": false
      },
      {
        "name": "player4",
        "position": "right",
        "origin": 6900,
        "changed": 0,
        "point": 6900,
        "riichi": false
      }
    ]
  },
  {
    "date": "12/15/2019, 3:26:52 PM",
    "gameDetail": {
      "round": "東",
      "hand": 1,
      "repeater": 5,
      "deposit": 0,
      "dealer": "bottom"
    },
    "handDetail": {
      "state": "自摸",
      "han_fu": "1_30",
      "point": 3000
    },
    "playerDetail": [
      {
        "name": "player1",
        "position": "top",
        "origin": -5900,
        "changed": -1000,
        "point": -6900,
        "riichi": false
      },
      {
        "name": "player2",
        "position": "left",
        "origin": 6900,
        "changed": -1000,
        "point": 5900,
        "riichi": false
      },
      {
        "name": "player3",
        "position": "bottom",
        "origin": 92100,
        "changed": 3000,
        "point": 95100,
        "riichi": false
      },
      {
        "name": "player4",
        "position": "right",
        "origin": 6900,
        "changed": -1000,
        "point": 5900,
        "riichi": false
      }
    ]
  },
  {
    "date": "12/15/2019, 3:27:00 PM",
    "gameDetail": {
      "round": "東",
      "hand": 1,
      "repeater": 6,
      "deposit": 0,
      "dealer": "bottom"
    },
    "handDetail": {
      "state": "自摸",
      "han_fu": "1_30",
      "point": 3300
    },
    "playerDetail": [
      {
        "name": "player1",
        "position": "top",
        "origin": -6900,
        "changed": -1100,
        "point": -8000,
        "riichi": false
      },
      {
        "name": "player2",
        "position": "left",
        "origin": 5900,
        "changed": -1100,
        "point": 4800,
        "riichi": false
      },
      {
        "name": "player3",
        "position": "bottom",
        "origin": 95100,
        "changed": 3300,
        "point": 98400,
        "riichi": false
      },
      {
        "name": "player4",
        "position": "right",
        "origin": 5900,
        "changed": -1100,
        "point": 4800,
        "riichi": false
      }
    ]
  },
  {
    "date": "12/15/2019, 3:27:04 PM",
    "gameDetail": {
      "round": "東",
      "hand": 1,
      "repeater": 7,
      "deposit": 0,
      "dealer": "bottom"
    },
    "handDetail": {
      "state": "自摸",
      "han_fu": "1_30",
      "point": 3600
    },
    "playerDetail": [
      {
        "name": "player1",
        "position": "top",
        "origin": -8000,
        "changed": -1200,
        "point": -9200,
        "riichi": false
      },
      {
        "name": "player2",
        "position": "left",
        "origin": 4800,
        "changed": -1200,
        "point": 3600,
        "riichi": false
      },
      {
        "name": "player3",
        "position": "bottom",
        "origin": 98400,
        "changed": 3600,
        "point": 102000,
        "riichi": false
      },
      {
        "name": "player4",
        "position": "right",
        "origin": 4800,
        "changed": -1200,
        "point": 3600,
        "riichi": false
      }
    ]
  },
  {
    "date": "12/15/2019, 3:27:05 PM",
    "playerDetail": [
      {
        "name": "player3",
        "position": "bottom",
        "rank": 1,
        "point": 102000,
        "score": 72,
        "ranking_score": 40,
        "total_score": 112
      },
      {
        "name": "player4",
        "position": "right",
        "rank": 2,
        "point": 3600,
        "score": -26.4,
        "ranking_score": 10,
        "total_score": -16.4
      },
      {
        "name": "player2",
        "position": "left",
        "rank": 3,
        "point": 3600,
        "score": -26.4,
        "ranking_score": -10,
        "total_score": -36.4
      },
      {
        "name": "player1",
        "position": "top",
        "rank": 4,
        "point": -9200,
        "score": -39.2,
        "ranking_score": -20,
        "total_score": -59.2
      }
    ]
  },
  {
    "date": "12/15/2019, 3:27:27 PM",
    "gameDetail": {
      "round": "東",
      "hand": 1,
      "repeater": 9,
      "deposit": 0,
      "dealer": "bottom"
    },
    "handDetail": {
      "state": "和了",
      "han_fu": "1_30",
      "point": 4200
    },
    "playerDetail": [
      {
        "name": "player1",
        "position": "top",
        "origin": 102000,
        "changed": -4200,
        "point": -17300,
        "riichi": false
      },
      {
        "name": "player2",
        "position": "left",
        "origin": 3600,
        "changed": 0,
        "point": 3600,
        "riichi": false
      },
      {
        "name": "player3",
        "position": "bottom",
        "origin": 3600,
        "changed": 4200,
        "point": 110100,
        "riichi": false
      },
      {
        "name": "player4",
        "position": "right",
        "origin": -9200,
        "changed": 0,
        "point": 3600,
        "riichi": false
      }
    ]
  },
  {
    "date": "12/15/2019, 3:27:28 PM",
    "playerDetail": [
      {
        "name": "player3",
        "position": "bottom",
        "rank": 1,
        "point": 110100,
        "score": 80.1,
        "ranking_score": 40,
        "total_score": 120.1
      },
      {
        "name": "player4",
        "position": "right",
        "rank": 2,
        "point": 3600,
        "score": -26.4,
        "ranking_score": 10,
        "total_score": -16.4
      },
      {
        "name": "player2",
        "position": "left",
        "rank": 3,
        "point": 3600,
        "score": -26.4,
        "ranking_score": -10,
        "total_score": -36.4
      },
      {
        "name": "player1",
        "position": "top",
        "rank": 4,
        "point": -17300,
        "score": -47.3,
        "ranking_score": -20,
        "total_score": -67.3
      }
    ]
  }
]
