[
  {
    "date": "12/1/2019, 3:01:47 PM",
    "starting_player": "top",
    "gameDetail": {
      "round": "東",
      "hand": 1,
      "repeater": 0,
      "deposit": 0,
      "dealer": "top"
    },
    "playerDetail": [
      {
        "name": "player1",
        "position": "top",
        "origin": 25000,
        "point": 25000
      },
      {
        "name": "player2",
        "position": "left",
        "origin": 25000,
        "point": 25000
      },
      {
        "name": "player3",
        "position": "bottom",
        "origin": 25000,
        "point": 25000
      },
      {
        "name": "player4",
        "position": "right",
        "origin": 25000,
        "point": 25000
      }
    ]
  },
  {
    "date": "12/1/2019, 3:01:52 PM",
    "gameDetail": {
      "round": "東",
      "hand": 1,
      "repeater": 0,
      "deposit": 0,
      "dealer": "top"
    },
    "handDetail": {
      "state": "和了",
      "han_fu": "役滿",
      "point": 32000
    },
    "playerDetail": [
      {
        "name": "player1",
        "position": "top",
        "origin": 25000,
        "changed": -32000,
        "point": -7000,
        "riichi": false
      },
      {
        "name": "player2",
        "position": "left",
        "origin": 25000,
        "changed": 0,
        "point": 25000,
        "riichi": false
      },
      {
        "name": "player3",
        "position": "bottom",
        "origin": 25000,
        "changed": 32000,
        "point": 57000,
        "riichi": false
      },
      {
        "name": "player4",
        "position": "right",
        "origin": 25000,
        "changed": 0,
        "point": 25000,
        "riichi": false
      }
    ]
  },
  {
    "date": "12/1/2019, 3:01:52 PM",
    "playerDetail": [
      {
        "name": "player3",
        "position": "bottom",
        "rank": 1,
        "point": 57000,
        "score": 27,
        "ranking_score": 40,
        "total_score": 67
      },
      {
        "name": "player2",
        "position": "left",
        "rank": 2,
        "point": 25000,
        "score": -5,
        "ranking_score": 10,
        "total_score": 5
      },
      {
        "name": "player4",
        "position": "right",
        "rank": 3,
        "point": 25000,
        "score": -5,
        "ranking_score": -10,
        "total_score": -15
      },
      {
        "name": "player1",
        "position": "top",
        "rank": 4,
        "point": -7000,
        "score": -37,
        "ranking_score": -20,
        "total_score": -57
      }
    ]
  }
]
