[
  {
    "date": "1/25/2020, 3:30:03 AM",
    "starting_player": "top",
    "gameDetail": {
      "round": "東",
      "hand": 1,
      "repeater": 0,
      "deposit": 0,
      "dealer": "top"
    },
    "playerDetail": [
      {
        "name": "jeremy",
        "position": "top",
        "origin": 25000,
        "point": 25000
      },
      {
        "name": "jet",
        "position": "left",
        "origin": 25000,
        "point": 25000
      },
      {
        "name": "ricky",
        "position": "bottom",
        "origin": 25000,
        "point": 25000
      },
      {
        "name": "player4",
        "position": "right",
        "origin": 25000,
        "point": 25000
      }
    ]
  },
  {
    "date": "1/25/2020, 3:34:15 AM",
    "gameDetail": {
      "round": "東",
      "hand": 1,
      "repeater": 0,
      "deposit": 0,
      "dealer": "top"
    },
    "handDetail": {
      "state": "和了",
      "han_fu": "1_30",
      "point": 1000
    },
    "playerDetail": [
      {
        "name": "jeremy",
        "position": "top",
        "origin": 25000,
        "changed": 0,
        "point": 25000,
        "riichi": false,
        "furo": false
      },
      {
        "name": "jet",
        "position": "left",
        "origin": 25000,
        "changed": 1000,
        "point": 26000,
        "riichi": false,
        "furo": true
      },
      {
        "name": "ricky",
        "position": "bottom",
        "origin": 25000,
        "changed": -1000,
        "point": 24000,
        "riichi": false,
        "furo": true
      },
      {
        "name": "player4",
        "position": "right",
        "origin": 25000,
        "changed": 0,
        "point": 25000,
        "riichi": false,
        "furo": false
      }
    ]
  },
  {
    "date": "1/25/2020, 3:40:14 AM",
    "gameDetail": {
      "round": "東",
      "hand": 2,
      "repeater": 0,
      "deposit": 0,
      "dealer": "left"
    },
    "handDetail": {
      "state": "自摸",
      "han_fu": "2_20",
      "point": 1500
    },
    "playerDetail": [
      {
        "name": "jeremy",
        "position": "top",
        "origin": 25000,
        "changed": -400,
        "point": 24600,
        "riichi": false,
        "furo": false
      },
      {
        "name": "jet",
        "position": "left",
        "origin": 26000,
        "changed": -700,
        "point": 25300,
        "riichi": false,
        "furo": true
      },
      {
        "name": "ricky",
        "position": "bottom",
        "origin": 24000,
        "changed": -400,
        "point": 23600,
        "riichi": false,
        "furo": true
      },
      {
        "name": "player4",
        "position": "right",
        "origin": 25000,
        "changed": 1500,
        "point": 26500,
        "riichi": false,
        "furo": false
      }
    ]
  },
  {
    "date": "1/25/2020, 3:44:12 AM",
    "gameDetail": {
      "round": "東",
      "hand": 3,
      "repeater": 0,
      "deposit": 0,
      "dealer": "bottom"
    },
    "handDetail": {
      "state": "自摸",
      "han_fu": "跳滿",
      "point": 12000
    },
    "playerDetail": [
      {
        "name": "jeremy",
        "position": "top",
        "origin": 24600,
        "changed": -3000,
        "point": 21600,
        "riichi": false,
        "furo": false
      },
      {
        "name": "jet",
        "position": "left",
        "origin": 25300,
        "changed": 12000,
        "point": 37300,
        "riichi": true,
        "furo": false
      },
      {
        "name": "ricky",
        "position": "bottom",
        "origin": 23600,
        "changed": -6000,
        "point": 17600,
        "riichi": false,
        "furo": true
      },
      {
        "name": "player4",
        "position": "right",
        "origin": 26500,
        "changed": -3000,
        "point": 23500,
        "riichi": false,
        "furo": false
      }
    ]
  },
  {
    "date": "1/25/2020, 3:49:37 AM",
    "gameDetail": {
      "round": "東",
      "hand": 4,
      "repeater": 0,
      "deposit": 0,
      "dealer": "right"
    },
    "handDetail": {
      "state": "和了",
      "han_fu": "2_50",
      "point": 3200
    },
    "playerDetail": [
      {
        "name": "jeremy",
        "position": "top",
        "origin": 21600,
        "changed": -3200,
        "point": 18400,
        "riichi": false,
        "furo": true
      },
      {
        "name": "jet",
        "position": "left",
        "origin": 37300,
        "changed": 4200,
        "point": 41500,
        "riichi": true,
        "furo": false
      },
      {
        "name": "ricky",
        "position": "bottom",
        "origin": 17600,
        "changed": 0,
        "point": 17600,
        "riichi": false,
        "furo": false
      },
      {
        "name": "player4",
        "position": "right",
        "origin": 23500,
        "changed": -1000,
        "point": 22500,
        "riichi": true,
        "furo": false
      }
    ]
  },
  {
    "date": "1/25/2020, 3:54:23 AM",
    "gameDetail": {
      "round": "南",
      "hand": 1,
      "repeater": 0,
      "deposit": 0,
      "dealer": "top"
    },
    "handDetail": {
      "state": "和了",
      "han_fu": "2_40",
      "point": 3900
    },
    "playerDetail": [
      {
        "name": "jeremy",
        "position": "top",
        "origin": 18400,
        "changed": 3900,
        "point": 22300,
        "riichi": true,
        "furo": false
      },
      {
        "name": "jet",
        "position": "left",
        "origin": 41500,
        "changed": 0,
        "point": 41500,
        "riichi": false,
        "furo": false
      },
      {
        "name": "ricky",
        "position": "bottom",
        "origin": 17600,
        "changed": -3900,
        "point": 13700,
        "riichi": false,
        "furo": false
      },
      {
        "name": "player4",
        "position": "right",
        "origin": 22500,
        "changed": 0,
        "point": 22500,
        "riichi": false,
        "furo": true
      }
    ]
  },
  {
    "date": "1/25/2020, 4:01:07 AM",
    "gameDetail": {
      "round": "南",
      "hand": 1,
      "repeater": 1,
      "deposit": 0,
      "dealer": "top"
    },
    "handDetail": {
      "state": "流局"
    },
    "playerDetail": [
      {
        "name": "jeremy",
        "position": "top",
        "origin": 22300,
        "changed": 1000,
        "point": 23300,
        "riichi": false,
        "furo": true
      },
      {
        "name": "jet",
        "position": "left",
        "origin": 41500,
        "changed": 1000,
        "point": 42500,
        "riichi": false,
        "furo": true
      },
      {
        "name": "ricky",
        "position": "bottom",
        "origin": 13700,
        "changed": -3000,
        "point": 10700,
        "riichi": false,
        "furo": false
      },
      {
        "name": "player4",
        "position": "right",
        "origin": 22500,
        "changed": 1000,
        "point": 23500,
        "riichi": false,
        "furo": false
      }
    ]
  },
  {
    "date": "1/25/2020, 4:04:28 AM",
    "gameDetail": {
      "round": "南",
      "hand": 1,
      "repeater": 2,
      "deposit": 0,
      "dealer": "top"
    },
    "handDetail": {
      "state": "和了",
      "han_fu": "3_30",
      "point": 4500
    },
    "playerDetail": [
      {
        "name": "jeremy",
        "position": "top",
        "origin": 23300,
        "changed": 0,
        "point": 23300,
        "riichi": false,
        "furo": false
      },
      {
        "name": "jet",
        "position": "left",
        "origin": 42500,
        "changed": -5500,
        "point": 37000,
        "riichi": true,
        "furo": false
      },
      {
        "name": "ricky",
        "position": "bottom",
        "origin": 10700,
        "changed": 0,
        "point": 10700,
        "riichi": false,
        "furo": false
      },
      {
        "name": "player4",
        "position": "right",
        "origin": 23500,
        "changed": 5500,
        "point": 29000,
        "riichi": false,
        "furo": true
      }
    ]
  },
  {
    "date": "1/25/2020, 4:09:03 AM",
    "gameDetail": {
      "round": "南",
      "hand": 2,
      "repeater": 0,
      "deposit": 0,
      "dealer": "left"
    },
    "handDetail": {
      "state": "自摸",
      "han_fu": "滿貫",
      "point": 8000
    },
    "playerDetail": [
      {
        "name": "jeremy",
        "position": "top",
        "origin": 23300,
        "changed": 8000,
        "point": 31300,
        "riichi": true,
        "furo": false
      },
      {
        "name": "jet",
        "position": "left",
        "origin": 37000,
        "changed": -4000,
        "point": 33000,
        "riichi": false,
        "furo": false
      },
      {
        "name": "ricky",
        "position": "bottom",
        "origin": 10700,
        "changed": -2000,
        "point": 8700,
        "riichi": false,
        "furo": true
      },
      {
        "name": "player4",
        "position": "right",
        "origin": 29000,
        "changed": -2000,
        "point": 27000,
        "riichi": false,
        "furo": false
      }
    ]
  },
  {
    "date": "1/25/2020, 4:13:46 AM",
    "gameDetail": {
      "round": "南",
      "hand": 3,
      "repeater": 0,
      "deposit": 0,
      "dealer": "bottom"
    },
    "handDetail": {
      "state": "和了",
      "han_fu": "2_30",
      "point": 2000
    },
    "playerDetail": [
      {
        "name": "jeremy",
        "position": "top",
        "origin": 31300,
        "changed": 0,
        "point": 31300,
        "riichi": false,
        "furo": false
      },
      {
        "name": "jet",
        "position": "left",
        "origin": 33000,
        "changed": 0,
        "point": 33000,
        "riichi": false,
        "furo": false
      },
      {
        "name": "ricky",
        "position": "bottom",
        "origin": 8700,
        "changed": -2000,
        "point": 6700,
        "riichi": false,
        "furo": true
      },
      {
        "name": "player4",
        "position": "right",
        "origin": 27000,
        "changed": 2000,
        "point": 29000,
        "riichi": false,
        "furo": true
      }
    ]
  },
  {
    "date": "1/25/2020, 4:17:48 AM",
    "gameDetail": {
      "round": "南",
      "hand": 4,
      "repeater": 0,
      "deposit": 0,
      "dealer": "right"
    },
    "handDetail": {
      "state": "自摸",
      "han_fu": "2_30",
      "point": 2000
    },
    "playerDetail": [
      {
        "name": "jeremy",
        "position": "top",
        "origin": 31300,
        "changed": -500,
        "point": 30800,
        "riichi": false,
        "furo": true
      },
      {
        "name": "jet",
        "position": "left",
        "origin": 33000,
        "changed": -500,
        "point": 32500,
        "riichi": false,
        "furo": false
      },
      {
        "name": "ricky",
        "position": "bottom",
        "origin": 6700,
        "changed": 2000,
        "point": 8700,
        "riichi": false,
        "furo": true
      },
      {
        "name": "player4",
        "position": "right",
        "origin": 29000,
        "changed": -1000,
        "point": 28000,
        "riichi": false,
        "furo": false
      }
    ]
  },
  {
    "date": "1/25/2020, 4:17:49 AM",
    "playerDetail": [
      {
        "name": "jeremy",
        "position": "top",
        "rank": 2,
        "point": 30800,
        "score": 0.8,
        "ranking_score": 10,
        "total_score": 10.8
      },
      {
        "name": "jet",
        "position": "left",
        "rank": 1,
        "point": 32500,
        "score": 2.5,
        "ranking_score": 40,
        "total_score": 42.5
      },
      {
        "name": "ricky",
        "position": "bottom",
        "rank": 4,
        "point": 8700,
        "score": -21.3,
        "ranking_score": -20,
        "total_score": -41.3
      },
      {
        "name": "player4",
        "position": "right",
        "rank": 3,
        "point": 28000,
        "score": -2,
        "ranking_score": -10,
        "total_score": -12
      }
    ]
  }
]
