[
  {
    "date": "6/7/2020, 5:28:50 PM",
    "starting_player": "left",
    "gameDetail": {
      "round": "東",
      "hand": 1,
      "repeater": 0,
      "deposit": 0,
      "dealer": "left"
    },
    "playerDetail": [
      {
        "name": "Victor",
        "position": "top",
        "origin": 25000,
        "point": 25000
      },
      {
        "name": "Alan",
        "position": "left",
        "origin": 25000,
        "point": 25000
      },
      {
        "name": "Ricky",
        "position": "bottom",
        "origin": 25000,
        "point": 25000
      },
      {
        "name": "Tim",
        "position": "right",
        "origin": 25000,
        "point": 25000
      }
    ]
  },
  {
    "date": "6/7/2020, 5:28:57 PM",
    "gameDetail": {
      "round": "東",
      "hand": 1,
      "repeater": 0,
      "deposit": 0,
      "dealer": "left"
    },
    "handDetail": {
      "state": "自摸",
      "han_fu": "滿貫",
      "point": 8000
    },
    "playerDetail": [
      {
        "name": "Victor",
        "position": "top",
        "origin": 25000,
        "changed": -2000,
        "point": 23000,
        "riichi": false
      },
      {
        "name": "Alan",
        "position": "left",
        "origin": 25000,
        "changed": -4000,
        "point": 21000,
        "riichi": false
      },
      {
        "name": "Ricky",
        "position": "bottom",
        "origin": 25000,
        "changed": 8000,
        "point": 33000,
        "riichi": false
      },
      {
        "name": "Tim",
        "position": "right",
        "origin": 25000,
        "changed": -2000,
        "point": 23000,
        "riichi": false
      }
    ]
  },
  {
    "date": "6/7/2020, 5:38:30 PM",
    "gameDetail": {
      "round": "東",
      "hand": 2,
      "repeater": 0,
      "deposit": 0,
      "dealer": "bottom"
    },
    "handDetail": {
      "state": "和了",
      "han_fu": "滿貫",
      "point": 8000
    },
    "playerDetail": [
      {
        "name": "Victor",
        "position": "top",
        "origin": 23000,
        "changed": 8000,
        "point": 31000,
        "riichi": true,
        "furo": false
      },
      {
        "name": "Alan",
        "position": "left",
        "origin": 21000,
        "changed": 0,
        "point": 21000,
        "riichi": false,
        "furo": false
      },
      {
        "name": "Ricky",
        "position": "bottom",
        "origin": 33000,
        "changed": -8000,
        "point": 25000,
        "riichi": false,
        "furo": false
      },
      {
        "name": "Tim",
        "position": "right",
        "origin": 23000,
        "changed": 0,
        "point": 23000,
        "riichi": false,
        "furo": false
      }
    ]
  },
  {
    "date": "6/7/2020, 5:46:26 PM",
    "gameDetail": {
      "round": "東",
      "hand": 3,
      "repeater": 0,
      "deposit": 0,
      "dealer": "right"
    },
    "handDetail": {
      "state": "自摸",
      "han_fu": "跳滿",
      "point": 12000
    },
    "playerDetail": [
      {
        "name": "Victor",
        "position": "top",
        "origin": 31000,
        "changed": -3000,
        "point": 28000,
        "riichi": false,
        "furo": false
      },
      {
        "name": "Alan",
        "position": "left",
        "origin": 21000,
        "changed": -3000,
        "point": 18000,
        "riichi": false,
        "furo": false
      },
      {
        "name": "Ricky",
        "position": "bottom",
        "origin": 25000,
        "changed": 12000,
        "point": 37000,
        "riichi": true,
        "furo": false
      },
      {
        "name": "Tim",
        "position": "right",
        "origin": 23000,
        "changed": -6000,
        "point": 17000,
        "riichi": false,
        "furo": false
      }
    ]
  },
  {
    "date": "6/7/2020, 5:51:18 PM",
    "gameDetail": {
      "round": "東",
      "hand": 4,
      "repeater": 0,
      "deposit": 0,
      "dealer": "top"
    },
    "handDetail": {
      "state": "和了",
      "han_fu": "2_40",
      "point": 2600
    },
    "playerDetail": [
      {
        "name": "Victor",
        "position": "top",
        "origin": 28000,
        "changed": 0,
        "point": 28000,
        "riichi": false,
        "furo": true
      },
      {
        "name": "Alan",
        "position": "left",
        "origin": 18000,
        "changed": -2600,
        "point": 15400,
        "riichi": false,
        "furo": false
      },
      {
        "name": "Ricky",
        "position": "bottom",
        "origin": 37000,
        "changed": 2600,
        "point": 39600,
        "riichi": false,
        "furo": false
      },
      {
        "name": "Tim",
        "position": "right",
        "origin": 17000,
        "changed": 0,
        "point": 17000,
        "riichi": false,
        "furo": false
      }
    ]
  },
  {
    "date": "6/7/2020, 5:59:58 PM",
    "gameDetail": {
      "round": "南",
      "hand": 1,
      "repeater": 0,
      "deposit": 0,
      "dealer": "left"
    },
    "handDetail": {
      "state": "流局"
    },
    "playerDetail": [
      {
        "name": "Victor",
        "position": "top",
        "origin": 28000,
        "changed": 1500,
        "point": 29500,
        "riichi": false,
        "furo": false
      },
      {
        "name": "Alan",
        "position": "left",
        "origin": 15400,
        "changed": 1500,
        "point": 16900,
        "riichi": false,
        "furo": true
      },
      {
        "name": "Ricky",
        "position": "bottom",
        "origin": 39600,
        "changed": -1500,
        "point": 38100,
        "riichi": false,
        "furo": false
      },
      {
        "name": "Tim",
        "position": "right",
        "origin": 17000,
        "changed": -1500,
        "point": 15500,
        "riichi": false,
        "furo": false
      }
    ]
  },
  {
    "date": "6/7/2020, 6:11:23 PM",
    "gameDetail": {
      "round": "南",
      "hand": 1,
      "repeater": 1,
      "deposit": 0,
      "dealer": "left"
    },
    "handDetail": {
      "state": "流局"
    },
    "playerDetail": [
      {
        "name": "Victor",
        "position": "top",
        "origin": 29500,
        "changed": 1500,
        "point": 31000,
        "riichi": false,
        "furo": true
      },
      {
        "name": "Alan",
        "position": "left",
        "origin": 16900,
        "changed": 1500,
        "point": 18400,
        "riichi": false,
        "furo": true
      },
      {
        "name": "Ricky",
        "position": "bottom",
        "origin": 38100,
        "changed": -1500,
        "point": 36600,
        "riichi": false,
        "furo": false
      },
      {
        "name": "Tim",
        "position": "right",
        "origin": 15500,
        "changed": -1500,
        "point": 14000,
        "riichi": false,
        "furo": true
      }
    ]
  },
  {
    "date": "6/7/2020, 6:21:58 PM",
    "gameDetail": {
      "round": "南",
      "hand": 1,
      "repeater": 2,
      "deposit": 0,
      "dealer": "left"
    },
    "handDetail": {
      "state": "自摸",
      "han_fu": "4_20",
      "point": 5800
    },
    "playerDetail": [
      {
        "name": "Victor",
        "position": "top",
        "origin": 31000,
        "changed": 6800,
        "point": 37800,
        "riichi": false,
        "furo": true
      },
      {
        "name": "Alan",
        "position": "left",
        "origin": 18400,
        "changed": -3800,
        "point": 14600,
        "riichi": true,
        "furo": false
      },
      {
        "name": "Ricky",
        "position": "bottom",
        "origin": 36600,
        "changed": -1500,
        "point": 35100,
        "riichi": false,
        "furo": false
      },
      {
        "name": "Tim",
        "position": "right",
        "origin": 14000,
        "changed": -1500,
        "point": 12500,
        "riichi": false,
        "furo": true
      }
    ]
  },
  {
    "date": "6/7/2020, 6:27:31 PM",
    "gameDetail": {
      "round": "南",
      "hand": 2,
      "repeater": 0,
      "deposit": 0,
      "dealer": "bottom"
    },
    "handDetail": {
      "state": "和了",
      "han_fu": "2_50",
      "point": 3200
    },
    "playerDetail": [
      {
        "name": "Victor",
        "position": "top",
        "origin": 37800,
        "changed": -3200,
        "point": 34600,
        "riichi": false,
        "furo": false
      },
      {
        "name": "Alan",
        "position": "left",
        "origin": 14600,
        "changed": 3200,
        "point": 17800,
        "riichi": true,
        "furo": false
      },
      {
        "name": "Ricky",
        "position": "bottom",
        "origin": 35100,
        "changed": 0,
        "point": 35100,
        "riichi": false,
        "furo": false
      },
      {
        "name": "Tim",
        "position": "right",
        "origin": 12500,
        "changed": 0,
        "point": 12500,
        "riichi": false,
        "furo": false
      }
    ]
  },
  {
    "date": "6/7/2020, 6:33:12 PM",
    "gameDetail": {
      "round": "南",
      "hand": 3,
      "repeater": 0,
      "deposit": 0,
      "dealer": "right"
    },
    "handDetail": {
      "state": "自摸",
      "han_fu": "4_30",
      "point": 7900
    },
    "playerDetail": [
      {
        "name": "Victor",
        "position": "top",
        "origin": 34600,
        "changed": -3000,
        "point": 31600,
        "riichi": true,
        "furo": false
      },
      {
        "name": "Alan",
        "position": "left",
        "origin": 17800,
        "changed": -2000,
        "point": 15800,
        "riichi": false,
        "furo": false
      },
      {
        "name": "Ricky",
        "position": "bottom",
        "origin": 35100,
        "changed": 8900,
        "point": 44000,
        "riichi": true,
        "furo": false
      },
      {
        "name": "Tim",
        "position": "right",
        "origin": 12500,
        "changed": -3900,
        "point": 8600,
        "riichi": false,
        "furo": true
      }
    ]
  },
  {
    "date": "6/7/2020, 6:41:50 PM",
    "gameDetail": {
      "round": "南",
      "hand": 4,
      "repeater": 0,
      "deposit": 0,
      "dealer": "top"
    },
    "handDetail": {
      "state": "自摸",
      "han_fu": "2_30",
      "point": 2000
    },
    "playerDetail": [
      {
        "name": "Victor",
        "position": "top",
        "origin": 31600,
        "changed": -2000,
        "point": 29600,
        "riichi": true,
        "furo": false
      },
      {
        "name": "Alan",
        "position": "left",
        "origin": 15800,
        "changed": 3000,
        "point": 18800,
        "riichi": false
      },
      {
        "name": "Ricky",
        "position": "bottom",
        "origin": 44000,
        "changed": -500,
        "point": 43500,
        "riichi": false
      },
      {
        "name": "Tim",
        "position": "right",
        "origin": 8600,
        "changed": -500,
        "point": 8100,
        "riichi": false
      }
    ]
  },
  {
    "date": "6/7/2020, 6:41:56 PM",
    "playerDetail": [
      {
        "name": "Victor",
        "position": "top",
        "rank": 2,
        "point": 29600,
        "score": -0.4,
        "ranking_score": 10,
        "total_score": 9.6
      },
      {
        "name": "Alan",
        "position": "left",
        "rank": 3,
        "point": 18800,
        "score": -11.2,
        "ranking_score": -10,
        "total_score": -21.2
      },
      {
        "name": "Ricky",
        "position": "bottom",
        "rank": 1,
        "point": 43500,
        "score": 13.5,
        "ranking_score": 40,
        "total_score": 53.5
      },
      {
        "name": "Tim",
        "position": "right",
        "rank": 4,
        "point": 8100,
        "score": -21.9,
        "ranking_score": -20,
        "total_score": -41.9
      }
    ]
  }
]
