[
  {
    "date": "1/26/2020, 6:59:52 PM",
    "starting_player": "bottom",
    "gameDetail": {
      "round": "東",
      "hand": 1,
      "repeater": 0,
      "deposit": 0,
      "dealer": "bottom"
    },
    "playerDetail": [
      {
        "name": "player1",
        "position": "top",
        "origin": 25000,
        "point": 25000
      },
      {
        "name": "player2",
        "position": "left",
        "origin": 25000,
        "point": 25000
      },
      {
        "name": "player3",
        "position": "bottom",
        "origin": 25000,
        "point": 25000
      },
      {
        "name": "player4",
        "position": "right",
        "origin": 25000,
        "point": 25000
      }
    ]
  },
  {
    "date": "1/26/2020, 6:59:53 PM",
    "gameDetail": {
      "round": "東",
      "hand": 1,
      "repeater": 0,
      "deposit": 0,
      "dealer": "bottom"
    },
    "handDetail": {
      "state": "流局"
    },
    "playerDetail": [
      {
        "name": "player1",
        "position": "top",
        "origin": 25000,
        "changed": 0,
        "point": 25000,
        "riichi": false
      },
      {
        "name": "player2",
        "position": "left",
        "origin": 25000,
        "changed": 0,
        "point": 25000,
        "riichi": false
      },
      {
        "name": "player3",
        "position": "bottom",
        "origin": 25000,
        "changed": 0,
        "point": 25000,
        "riichi": false
      },
      {
        "name": "player4",
        "position": "right",
        "origin": 25000,
        "changed": 0,
        "point": 25000,
        "riichi": false
      }
    ]
  },
  {
    "date": "1/26/2020, 6:59:54 PM",
    "gameDetail": {
      "round": "東",
      "hand": 2,
      "repeater": 1,
      "deposit": 0,
      "dealer": "right"
    },
    "handDetail": {
      "state": "流局"
    },
    "playerDetail": [
      {
        "name": "player1",
        "position": "top",
        "origin": 25000,
        "changed": 0,
        "point": 25000,
        "riichi": false
      },
      {
        "name": "player2",
        "position": "left",
        "origin": 25000,
        "changed": 0,
        "point": 25000,
        "riichi": false
      },
      {
        "name": "player3",
        "position": "bottom",
        "origin": 25000,
        "changed": 0,
        "point": 25000,
        "riichi": false
      },
      {
        "name": "player4",
        "position": "right",
        "origin": 25000,
        "changed": 0,
        "point": 25000,
        "riichi": false
      }
    ]
  },
  {
    "date": "1/26/2020, 6:59:54 PM",
    "gameDetail": {
      "round": "東",
      "hand": 3,
      "repeater": 2,
      "deposit": 0,
      "dealer": "top"
    },
    "handDetail": {
      "state": "流局"
    },
    "playerDetail": [
      {
        "name": "player1",
        "position": "top",
        "origin": 25000,
        "changed": 0,
        "point": 25000,
        "riichi": false
      },
      {
        "name": "player2",
        "position": "left",
        "origin": 25000,
        "changed": 0,
        "point": 25000,
        "riichi": false
      },
      {
        "name": "player3",
        "position": "bottom",
        "origin": 25000,
        "changed": 0,
        "point": 25000,
        "riichi": false
      },
      {
        "name": "player4",
        "position": "right",
        "origin": 25000,
        "changed": 0,
        "point": 25000,
        "riichi": false
      }
    ]
  },
  {
    "date": "1/26/2020, 6:59:55 PM",
    "gameDetail": {
      "round": "東",
      "hand": 4,
      "repeater": 3,
      "deposit": 0,
      "dealer": "left"
    },
    "handDetail": {
      "state": "流局"
    },
    "playerDetail": [
      {
        "name": "player1",
        "position": "top",
        "origin": 25000,
        "changed": 0,
        "point": 25000,
        "riichi": false
      },
      {
        "name": "player2",
        "position": "left",
        "origin": 25000,
        "changed": 0,
        "point": 25000,
        "riichi": false
      },
      {
        "name": "player3",
        "position": "bottom",
        "origin": 25000,
        "changed": 0,
        "point": 25000,
        "riichi": false
      },
      {
        "name": "player4",
        "position": "right",
        "origin": 25000,
        "changed": 0,
        "point": 25000,
        "riichi": false
      }
    ]
  },
  {
    "date": "1/26/2020, 6:59:55 PM",
    "gameDetail": {
      "round": "南",
      "hand": 1,
      "repeater": 4,
      "deposit": 0,
      "dealer": "bottom"
    },
    "handDetail": {
      "state": "流局"
    },
    "playerDetail": [
      {
        "name": "player1",
        "position": "top",
        "origin": 25000,
        "changed": 0,
        "point": 25000,
        "riichi": false
      },
      {
        "name": "player2",
        "position": "left",
        "origin": 25000,
        "changed": 0,
        "point": 25000,
        "riichi": false
      },
      {
        "name": "player3",
        "position": "bottom",
        "origin": 25000,
        "changed": 0,
        "point": 25000,
        "riichi": false
      },
      {
        "name": "player4",
        "position": "right",
        "origin": 25000,
        "changed": 0,
        "point": 25000,
        "riichi": false
      }
    ]
  },
  {
    "date": "1/26/2020, 6:59:56 PM",
    "gameDetail": {
      "round": "南",
      "hand": 2,
      "repeater": 5,
      "deposit": 0,
      "dealer": "right"
    },
    "handDetail": {
      "state": "流局"
    },
    "playerDetail": [
      {
        "name": "player1",
        "position": "top",
        "origin": 25000,
        "changed": 0,
        "point": 25000,
        "riichi": false
      },
      {
        "name": "player2",
        "position": "left",
        "origin": 25000,
        "changed": 0,
        "point": 25000,
        "riichi": false
      },
      {
        "name": "player3",
        "position": "bottom",
        "origin": 25000,
        "changed": 0,
        "point": 25000,
        "riichi": false
      },
      {
        "name": "player4",
        "position": "right",
        "origin": 25000,
        "changed": 0,
        "point": 25000,
        "riichi": false
      }
    ]
  },
  {
    "date": "1/26/2020, 6:59:58 PM",
    "gameDetail": {
      "round": "南",
      "hand": 3,
      "repeater": 6,
      "deposit": 0,
      "dealer": "top"
    },
    "handDetail": {
      "state": "流局"
    },
    "playerDetail": [
      {
        "name": "player1",
        "position": "top",
        "origin": 25000,
        "changed": 0,
        "point": 25000,
        "riichi": false
      },
      {
        "name": "player2",
        "position": "left",
        "origin": 25000,
        "changed": 0,
        "point": 25000,
        "riichi": false
      },
      {
        "name": "player3",
        "position": "bottom",
        "origin": 25000,
        "changed": 0,
        "point": 25000,
        "riichi": false
      },
      {
        "name": "player4",
        "position": "right",
        "origin": 25000,
        "changed": 0,
        "point": 25000,
        "riichi": false
      }
    ]
  },
  {
    "date": "1/26/2020, 7:00:01 PM",
    "gameDetail": {
      "round": "南",
      "hand": 4,
      "repeater": 7,
      "deposit": 0,
      "dealer": "left"
    },
    "handDetail": {
      "state": "自摸",
      "han_fu": "2_30",
      "point": 5100
    },
    "playerDetail": [
      {
        "name": "player1",
        "position": "top",
        "origin": 25000,
        "changed": -1700,
        "point": 23300,
        "riichi": false
      },
      {
        "name": "player2",
        "position": "left",
        "origin": 25000,
        "changed": 5100,
        "point": 30100,
        "riichi": false,
        "furo": false
      },
      {
        "name": "player3",
        "position": "bottom",
        "origin": 25000,
        "changed": -1700,
        "point": 23300,
        "riichi": false
      },
      {
        "name": "player4",
        "position": "right",
        "origin": 25000,
        "changed": -1700,
        "point": 23300,
        "riichi": false
      }
    ]
  },
  {
    "date": "1/26/2020, 7:00:05 PM",
    "playerDetail": [
      {
        "name": "player1",
        "position": "top",
        "rank": 4,
        "point": 23300,
        "score": -6.7,
        "ranking_score": -20,
        "total_score": -26.7
      },
      {
        "name": "player2",
        "position": "left",
        "rank": 1,
        "point": 30100,
        "score": 0.1,
        "ranking_score": 40,
        "total_score": 40.1
      },
      {
        "name": "player3",
        "position": "bottom",
        "rank": 2,
        "point": 23300,
        "score": -6.7,
        "ranking_score": 10,
        "total_score": 3.3
      },
      {
        "name": "player4",
        "position": "right",
        "rank": 3,
        "point": 23300,
        "score": -6.7,
        "ranking_score": -10,
        "total_score": -16.7
      }
    ]
  }
]
