[
  {
    "date": "12/15/2019, 9:31:07 PM",
    "starting_player": "bottom",
    "gameDetail": {
      "round": "東",
      "hand": 1,
      "repeater": 0,
      "deposit": 0,
      "dealer": "bottom"
    },
    "playerDetail": [
      {
        "name": "player1",
        "position": "top",
        "origin": 25000,
        "point": 25000
      },
      {
        "name": "player2",
        "position": "left",
        "origin": 25000,
        "point": 25000
      },
      {
        "name": "player3",
        "position": "bottom",
        "origin": 25000,
        "point": 25000
      },
      {
        "name": "player4",
        "position": "right",
        "origin": 25000,
        "point": 25000
      }
    ]
  },
  {
    "date": "12/15/2019, 9:37:14 PM",
    "gameDetail": {
      "round": "東",
      "hand": 1,
      "repeater": 0,
      "deposit": 0,
      "dealer": "bottom"
    },
    "handDetail": {
      "state": "自摸",
      "han_fu": "3_30",
      "point": 4000
    },
    "playerDetail": [
      {
        "name": "player1",
        "position": "top",
        "origin": 25000,
        "changed": 4000,
        "point": 29000,
        "riichi": false
      },
      {
        "name": "player2",
        "position": "left",
        "origin": 25000,
        "changed": -1000,
        "point": 24000,
        "riichi": false
      },
      {
        "name": "player3",
        "position": "bottom",
        "origin": 25000,
        "changed": -2000,
        "point": 23000,
        "riichi": false
      },
      {
        "name": "player4",
        "position": "right",
        "origin": 25000,
        "changed": -1000,
        "point": 24000,
        "riichi": false
      }
    ]
  },
  {
    "date": "12/15/2019, 9:40:42 PM",
    "gameDetail": {
      "round": "東",
      "hand": 2,
      "repeater": 0,
      "deposit": 0,
      "dealer": "right"
    },
    "handDetail": {
      "state": "和了",
      "han_fu": "1_30",
      "point": 1000
    },
    "playerDetail": [
      {
        "name": "player1",
        "position": "top",
        "origin": 29000,
        "changed": 0,
        "point": 29000,
        "riichi": false
      },
      {
        "name": "player2",
        "position": "left",
        "origin": 24000,
        "changed": 1000,
        "point": 25000,
        "riichi": false
      },
      {
        "name": "player3",
        "position": "bottom",
        "origin": 23000,
        "changed": -1000,
        "point": 22000,
        "riichi": false
      },
      {
        "name": "player4",
        "position": "right",
        "origin": 24000,
        "changed": 0,
        "point": 24000,
        "riichi": false
      }
    ]
  },
  {
    "date": "12/15/2019, 9:48:20 PM",
    "gameDetail": {
      "round": "東",
      "hand": 3,
      "repeater": 0,
      "deposit": 0,
      "dealer": "top"
    },
    "handDetail": {
      "state": "和了",
      "han_fu": "2_30",
      "point": 2900
    },
    "playerDetail": [
      {
        "name": "player1",
        "position": "top",
        "origin": 29000,
        "changed": 3900,
        "point": 32900,
        "riichi": true
      },
      {
        "name": "player2",
        "position": "left",
        "origin": 25000,
        "changed": 0,
        "point": 25000,
        "riichi": false
      },
      {
        "name": "player3",
        "position": "bottom",
        "origin": 22000,
        "changed": -3900,
        "point": 18100,
        "riichi": true
      },
      {
        "name": "player4",
        "position": "right",
        "origin": 24000,
        "changed": 0,
        "point": 24000,
        "riichi": false
      }
    ]
  },
  {
    "date": "12/15/2019, 9:55:37 PM",
    "gameDetail": {
      "round": "東",
      "hand": 3,
      "repeater": 1,
      "deposit": 1,
      "dealer": "top"
    },
    "handDetail": {
      "state": "流局"
    },
    "playerDetail": [
      {
        "name": "player1",
        "position": "top",
        "origin": 32900,
        "changed": 2000,
        "point": 34900,
        "riichi": true
      },
      {
        "name": "player2",
        "position": "left",
        "origin": 25000,
        "changed": -1000,
        "point": 24000,
        "riichi": false
      },
      {
        "name": "player3",
        "position": "bottom",
        "origin": 18100,
        "changed": -1000,
        "point": 17100,
        "riichi": false
      },
      {
        "name": "player4",
        "position": "right",
        "origin": 24000,
        "changed": -1000,
        "point": 23000,
        "riichi": false
      }
    ]
  },
  {
    "date": "12/15/2019, 10:07:52 PM",
    "gameDetail": {
      "round": "東",
      "hand": 3,
      "repeater": 2,
      "deposit": 1,
      "dealer": "top"
    },
    "handDetail": {
      "state": "流局"
    },
    "playerDetail": [
      {
        "name": "player1",
        "position": "top",
        "origin": 34900,
        "changed": 1500,
        "point": 36400,
        "riichi": false
      },
      {
        "name": "player2",
        "position": "left",
        "origin": 24000,
        "changed": 1500,
        "point": 25500,
        "riichi": false
      },
      {
        "name": "player3",
        "position": "bottom",
        "origin": 17100,
        "changed": -1500,
        "point": 15600,
        "riichi": false
      },
      {
        "name": "player4",
        "position": "right",
        "origin": 23000,
        "changed": -1500,
        "point": 21500,
        "riichi": false
      }
    ]
  },
  {
    "date": "12/15/2019, 10:15:42 PM",
    "gameDetail": {
      "round": "東",
      "hand": 3,
      "repeater": 3,
      "deposit": 3,
      "dealer": "top"
    },
    "handDetail": {
      "state": "流局"
    },
    "playerDetail": [
      {
        "name": "player1",
        "position": "top",
        "origin": 36400,
        "changed": 500,
        "point": 36900,
        "riichi": true
      },
      {
        "name": "player2",
        "position": "left",
        "origin": 25500,
        "changed": -1500,
        "point": 24000,
        "riichi": false
      },
      {
        "name": "player3",
        "position": "bottom",
        "origin": 15600,
        "changed": 500,
        "point": 16100,
        "riichi": true
      },
      {
        "name": "player4",
        "position": "right",
        "origin": 21500,
        "changed": -1500,
        "point": 20000,
        "riichi": false
      }
    ]
  },
  {
    "date": "12/15/2019, 10:26:18 PM",
    "gameDetail": {
      "round": "東",
      "hand": 3,
      "repeater": 4,
      "deposit": 3,
      "dealer": "top"
    },
    "handDetail": {
      "state": "流局"
    },
    "playerDetail": [
      {
        "name": "player1",
        "position": "top",
        "origin": 36900,
        "changed": -1000,
        "point": 35900,
        "riichi": false
      },
      {
        "name": "player2",
        "position": "left",
        "origin": 24000,
        "changed": -1000,
        "point": 23000,
        "riichi": false
      },
      {
        "name": "player3",
        "position": "bottom",
        "origin": 16100,
        "changed": -1000,
        "point": 15100,
        "riichi": false
      },
      {
        "name": "player4",
        "position": "right",
        "origin": 20000,
        "changed": 3000,
        "point": 23000,
        "riichi": false
      }
    ]
  },
  {
    "date": "12/15/2019, 10:32:34 PM",
    "gameDetail": {
      "round": "東",
      "hand": 4,
      "repeater": 5,
      "deposit": 0,
      "dealer": "left"
    },
    "handDetail": {
      "state": "和了",
      "han_fu": "滿貫",
      "point": 9500
    },
    "playerDetail": [
      {
        "name": "player1",
        "position": "top",
        "origin": 35900,
        "changed": 0,
        "point": 35900,
        "riichi": false
      },
      {
        "name": "player2",
        "position": "left",
        "origin": 23000,
        "changed": -9500,
        "point": 13500,
        "riichi": false
      },
      {
        "name": "player3",
        "position": "bottom",
        "origin": 15100,
        "changed": 12500,
        "point": 27600,
        "riichi": true
      },
      {
        "name": "player4",
        "position": "right",
        "origin": 23000,
        "changed": 0,
        "point": 23000,
        "riichi": false
      }
    ]
  },
  {
    "date": "12/15/2019, 10:37:48 PM",
    "gameDetail": {
      "round": "南",
      "hand": 1,
      "repeater": 0,
      "deposit": 0,
      "dealer": "bottom"
    },
    "handDetail": {
      "state": "和了",
      "han_fu": "1_30",
      "point": 1500
    },
    "playerDetail": [
      {
        "name": "player1",
        "position": "top",
        "origin": 35900,
        "changed": 0,
        "point": 35900,
        "riichi": false
      },
      {
        "name": "player2",
        "position": "left",
        "origin": 13500,
        "changed": -1500,
        "point": 12000,
        "riichi": false
      },
      {
        "name": "player3",
        "position": "bottom",
        "origin": 27600,
        "changed": 1500,
        "point": 29100,
        "riichi": false
      },
      {
        "name": "player4",
        "position": "right",
        "origin": 23000,
        "changed": 0,
        "point": 23000,
        "riichi": false
      }
    ]
  },
  {
    "date": "12/15/2019, 10:44:50 PM",
    "gameDetail": {
      "round": "南",
      "hand": 1,
      "repeater": 1,
      "deposit": 1,
      "dealer": "bottom"
    },
    "handDetail": {
      "state": "流局"
    },
    "playerDetail": [
      {
        "name": "player1",
        "position": "top",
        "origin": 35900,
        "changed": -1000,
        "point": 34900,
        "riichi": false
      },
      {
        "name": "player2",
        "position": "left",
        "origin": 12000,
        "changed": -1000,
        "point": 11000,
        "riichi": false
      },
      {
        "name": "player3",
        "position": "bottom",
        "origin": 29100,
        "changed": 2000,
        "point": 31100,
        "riichi": true
      },
      {
        "name": "player4",
        "position": "right",
        "origin": 23000,
        "changed": -1000,
        "point": 22000,
        "riichi": false
      }
    ]
  },
  {
    "date": "12/15/2019, 10:51:43 PM",
    "gameDetail": {
      "round": "南",
      "hand": 1,
      "repeater": 2,
      "deposit": 0,
      "dealer": "bottom"
    },
    "handDetail": {
      "state": "和了",
      "han_fu": "2_30",
      "point": 2600
    },
    "playerDetail": [
      {
        "name": "player1",
        "position": "top",
        "origin": 34900,
        "changed": 3600,
        "point": 38500,
        "riichi": false
      },
      {
        "name": "player2",
        "position": "left",
        "origin": 11000,
        "changed": 0,
        "point": 11000,
        "riichi": false
      },
      {
        "name": "player3",
        "position": "bottom",
        "origin": 31100,
        "changed": -2600,
        "point": 28500,
        "riichi": false
      },
      {
        "name": "player4",
        "position": "right",
        "origin": 22000,
        "changed": 0,
        "point": 22000,
        "riichi": false
      }
    ]
  },
  {
    "date": "12/15/2019, 10:53:09 PM",
    "gameDetail": {
      "round": "南",
      "hand": 2,
      "repeater": 0,
      "deposit": 0,
      "dealer": "right"
    },
    "handDetail": {
      "state": "和了",
      "han_fu": "滿貫",
      "point": 8000
    },
    "playerDetail": [
      {
        "name": "player1",
        "position": "top",
        "origin": 38500,
        "changed": 8000,
        "point": 46500,
        "riichi": false
      },
      {
        "name": "player2",
        "position": "left",
        "origin": 11000,
        "changed": 0,
        "point": 11000,
        "riichi": false
      },
      {
        "name": "player3",
        "position": "bottom",
        "origin": 28500,
        "changed": -8000,
        "point": 20500,
        "riichi": false
      },
      {
        "name": "player4",
        "position": "right",
        "origin": 22000,
        "changed": 0,
        "point": 22000,
        "riichi": false
      }
    ]
  },
  {
    "date": "12/15/2019, 10:54:14 PM",
    "gameDetail": {
      "round": "南",
      "hand": 3,
      "repeater": 0,
      "deposit": 1,
      "dealer": "top"
    },
    "handDetail": {
      "state": "流局"
    },
    "playerDetail": [
      {
        "name": "player1",
        "position": "top",
        "origin": 46500,
        "changed": 500,
        "point": 47000,
        "riichi": true
      },
      {
        "name": "player2",
        "position": "left",
        "origin": 11000,
        "changed": 1500,
        "point": 12500,
        "riichi": false
      },
      {
        "name": "player3",
        "position": "bottom",
        "origin": 20500,
        "changed": -1500,
        "point": 19000,
        "riichi": false
      },
      {
        "name": "player4",
        "position": "right",
        "origin": 22000,
        "changed": -1500,
        "point": 20500,
        "riichi": false
      }
    ]
  },
  {
    "date": "12/15/2019, 10:56:09 PM",
    "gameDetail": {
      "round": "南",
      "hand": 3,
      "repeater": 1,
      "deposit": 0,
      "dealer": "top"
    },
    "handDetail": {
      "state": "和了",
      "han_fu": "2_30",
      "point": 2300
    },
    "playerDetail": [
      {
        "name": "player1",
        "position": "top",
        "origin": 47000,
        "changed": 0,
        "point": 47000,
        "riichi": false
      },
      {
        "name": "player2",
        "position": "left",
        "origin": 12500,
        "changed": 3300,
        "point": 15800,
        "riichi": false
      },
      {
        "name": "player3",
        "position": "bottom",
        "origin": 19000,
        "changed": 0,
        "point": 19000,
        "riichi": false
      },
      {
        "name": "player4",
        "position": "right",
        "origin": 20500,
        "changed": -2300,
        "point": 18200,
        "riichi": false
      }
    ]
  },
  {
    "date": "12/15/2019, 10:57:21 PM",
    "gameDetail": {
      "round": "南",
      "hand": 4,
      "repeater": 0,
      "deposit": 1,
      "dealer": "left"
    },
    "handDetail": {
      "state": "流局"
    },
    "playerDetail": [
      {
        "name": "player1",
        "position": "top",
        "origin": 47000,
        "changed": -1000,
        "point": 46000,
        "riichi": false
      },
      {
        "name": "player2",
        "position": "left",
        "origin": 15800,
        "changed": 2000,
        "point": 17800,
        "riichi": true
      },
      {
        "name": "player3",
        "position": "bottom",
        "origin": 19000,
        "changed": -1000,
        "point": 18000,
        "riichi": false
      },
      {
        "name": "player4",
        "position": "right",
        "origin": 18200,
        "changed": -1000,
        "point": 17200,
        "riichi": false
      }
    ]
  },
  {
    "date": "12/15/2019, 10:59:51 PM",
    "gameDetail": {
      "round": "南",
      "hand": 4,
      "repeater": 1,
      "deposit": 0,
      "dealer": "left"
    },
    "handDetail": {
      "state": "自摸",
      "han_fu": "2_30",
      "point": 2300
    },
    "playerDetail": [
      {
        "name": "player1",
        "position": "top",
        "origin": 46000,
        "changed": -600,
        "point": 45400,
        "riichi": false
      },
      {
        "name": "player2",
        "position": "left",
        "origin": 17800,
        "changed": -1100,
        "point": 16700,
        "riichi": false
      },
      {
        "name": "player3",
        "position": "bottom",
        "origin": 18000,
        "changed": 3300,
        "point": 21300,
        "riichi": false
      },
      {
        "name": "player4",
        "position": "right",
        "origin": 17200,
        "changed": -600,
        "point": 16600,
        "riichi": false
      }
    ]
  },
  {
    "date": "12/15/2019, 10:59:51 PM",
    "playerDetail": [
      {
        "name": "player1",
        "position": "top",
        "rank": 1,
        "point": 45400,
        "score": 15.4,
        "ranking_score": 40,
        "total_score": 55.4
      },
      {
        "name": "player2",
        "position": "left",
        "rank": 3,
        "point": 16700,
        "score": -13.3,
        "ranking_score": -10,
        "total_score": -23.3
      },
      {
        "name": "player3",
        "position": "bottom",
        "rank": 2,
        "point": 21300,
        "score": -8.7,
        "ranking_score": 10,
        "total_score": 1.3
      },
      {
        "name": "player4",
        "position": "right",
        "rank": 4,
        "point": 16600,
        "score": -13.4,
        "ranking_score": -20,
        "total_score": -33.4
      }
    ]
  }
]
