[
  {
    "date": "12/8/2019, 12:56:55 AM",
    "starting_player": "bottom",
    "gameDetail": {
      "round": "東",
      "hand": 1,
      "repeater": 0,
      "deposit": 0,
      "dealer": "bottom"
    },
    "playerDetail": [
      {
        "name": "player1",
        "position": "top",
        "origin": 25000,
        "point": 25000
      },
      {
        "name": "player2",
        "position": "left",
        "origin": 25000,
        "point": 25000
      },
      {
        "name": "player3",
        "position": "bottom",
        "origin": 25000,
        "point": 25000
      },
      {
        "name": "player4",
        "position": "right",
        "origin": 25000,
        "point": 25000
      }
    ]
  },
  {
    "date": "12/8/2019, 12:57:00 AM",
    "gameDetail": {
      "round": "東",
      "hand": 1,
      "repeater": 0,
      "deposit": 0,
      "dealer": "bottom"
    },
    "handDetail": {
      "state": "流局"
    },
    "playerDetail": [
      {
        "name": "player1",
        "position": "top",
        "origin": 25000,
        "changed": 0,
        "point": 25000,
        "riichi": false
      },
      {
        "name": "player2",
        "position": "left",
        "origin": 25000,
        "changed": 0,
        "point": 25000,
        "riichi": false
      },
      {
        "name": "player3",
        "position": "bottom",
        "origin": 25000,
        "changed": 0,
        "point": 25000,
        "riichi": false
      },
      {
        "name": "player4",
        "position": "right",
        "origin": 25000,
        "changed": 0,
        "point": 25000,
        "riichi": false
      }
    ]
  },
  {
    "date": "12/8/2019, 12:57:02 AM",
    "gameDetail": {
      "round": "東",
      "hand": 2,
      "repeater": 1,
      "deposit": 0,
      "dealer": "right"
    },
    "handDetail": {
      "state": "流局"
    },
    "playerDetail": [
      {
        "name": "player1",
        "position": "top",
        "origin": 25000,
        "changed": 0,
        "point": 25000,
        "riichi": false
      },
      {
        "name": "player2",
        "position": "left",
        "origin": 25000,
        "changed": 0,
        "point": 25000,
        "riichi": false
      },
      {
        "name": "player3",
        "position": "bottom",
        "origin": 25000,
        "changed": 0,
        "point": 25000,
        "riichi": false
      },
      {
        "name": "player4",
        "position": "right",
        "origin": 25000,
        "changed": 0,
        "point": 25000,
        "riichi": false
      }
    ]
  },
  {
    "date": "12/8/2019, 12:57:05 AM",
    "gameDetail": {
      "round": "東",
      "hand": 3,
      "repeater": 2,
      "deposit": 0,
      "dealer": "top"
    },
    "handDetail": {
      "state": "流局"
    },
    "playerDetail": [
      {
        "name": "player1",
        "position": "top",
        "origin": 25000,
        "changed": 0,
        "point": 25000,
        "riichi": false
      },
      {
        "name": "player2",
        "position": "left",
        "origin": 25000,
        "changed": 0,
        "point": 25000,
        "riichi": false
      },
      {
        "name": "player3",
        "position": "bottom",
        "origin": 25000,
        "changed": 0,
        "point": 25000,
        "riichi": false
      },
      {
        "name": "player4",
        "position": "right",
        "origin": 25000,
        "changed": 0,
        "point": 25000,
        "riichi": false
      }
    ]
  },
  {
    "date": "12/8/2019, 12:57:07 AM",
    "gameDetail": {
      "round": "東",
      "hand": 4,
      "repeater": 3,
      "deposit": 0,
      "dealer": "left"
    },
    "handDetail": {
      "state": "流局"
    },
    "playerDetail": [
      {
        "name": "player1",
        "position": "top",
        "origin": 25000,
        "changed": 0,
        "point": 25000,
        "riichi": false
      },
      {
        "name": "player2",
        "position": "left",
        "origin": 25000,
        "changed": 0,
        "point": 25000,
        "riichi": false
      },
      {
        "name": "player3",
        "position": "bottom",
        "origin": 25000,
        "changed": 0,
        "point": 25000,
        "riichi": false
      },
      {
        "name": "player4",
        "position": "right",
        "origin": 25000,
        "changed": 0,
        "point": 25000,
        "riichi": false
      }
    ]
  },
  {
    "date": "12/8/2019, 12:57:09 AM",
    "gameDetail": {
      "round": "南",
      "hand": 1,
      "repeater": 4,
      "deposit": 0,
      "dealer": "bottom"
    },
    "handDetail": {
      "state": "流局"
    },
    "playerDetail": [
      {
        "name": "player1",
        "position": "top",
        "origin": 25000,
        "changed": 0,
        "point": 25000,
        "riichi": false
      },
      {
        "name": "player2",
        "position": "left",
        "origin": 25000,
        "changed": 0,
        "point": 25000,
        "riichi": false
      },
      {
        "name": "player3",
        "position": "bottom",
        "origin": 25000,
        "changed": 0,
        "point": 25000,
        "riichi": false
      },
      {
        "name": "player4",
        "position": "right",
        "origin": 25000,
        "changed": 0,
        "point": 25000,
        "riichi": false
      }
    ]
  },
  {
    "date": "12/8/2019, 12:57:12 AM",
    "gameDetail": {
      "round": "南",
      "hand": 2,
      "repeater": 5,
      "deposit": 0,
      "dealer": "right"
    },
    "handDetail": {
      "state": "流局"
    },
    "playerDetail": [
      {
        "name": "player1",
        "position": "top",
        "origin": 25000,
        "changed": 0,
        "point": 25000,
        "riichi": false
      },
      {
        "name": "player2",
        "position": "left",
        "origin": 25000,
        "changed": 0,
        "point": 25000,
        "riichi": false
      },
      {
        "name": "player3",
        "position": "bottom",
        "origin": 25000,
        "changed": 0,
        "point": 25000,
        "riichi": false
      },
      {
        "name": "player4",
        "position": "right",
        "origin": 25000,
        "changed": 0,
        "point": 25000,
        "riichi": false
      }
    ]
  },
  {
    "date": "12/8/2019, 12:57:14 AM",
    "gameDetail": {
      "round": "南",
      "hand": 3,
      "repeater": 6,
      "deposit": 0,
      "dealer": "top"
    },
    "handDetail": {
      "state": "流局"
    },
    "playerDetail": [
      {
        "name": "player1",
        "position": "top",
        "origin": 25000,
        "changed": 0,
        "point": 25000,
        "riichi": false
      },
      {
        "name": "player2",
        "position": "left",
        "origin": 25000,
        "changed": 0,
        "point": 25000,
        "riichi": false
      },
      {
        "name": "player3",
        "position": "bottom",
        "origin": 25000,
        "changed": 0,
        "point": 25000,
        "riichi": false
      },
      {
        "name": "player4",
        "position": "right",
        "origin": 25000,
        "changed": 0,
        "point": 25000,
        "riichi": false
      }
    ]
  },
  {
    "date": "12/8/2019, 12:57:16 AM",
    "gameDetail": {
      "round": "南",
      "hand": 4,
      "repeater": 7,
      "deposit": 0,
      "dealer": "left"
    },
    "handDetail": {
      "state": "流局"
    },
    "playerDetail": [
      {
        "name": "player1",
        "position": "top",
        "origin": 25000,
        "changed": 0,
        "point": 25000,
        "riichi": false
      },
      {
        "name": "player2",
        "position": "left",
        "origin": 25000,
        "changed": 0,
        "point": 25000,
        "riichi": false
      },
      {
        "name": "player3",
        "position": "bottom",
        "origin": 25000,
        "changed": 0,
        "point": 25000,
        "riichi": false
      },
      {
        "name": "player4",
        "position": "right",
        "origin": 25000,
        "changed": 0,
        "point": 25000,
        "riichi": false
      }
    ]
  },
  {
    "date": "12/8/2019, 12:57:19 AM",
    "gameDetail": {
      "round": "西",
      "hand": 1,
      "repeater": 8,
      "deposit": 0,
      "dealer": "bottom"
    },
    "handDetail": {
      "state": "流局"
    },
    "playerDetail": [
      {
        "name": "player1",
        "position": "top",
        "origin": 25000,
        "changed": 0,
        "point": 25000,
        "riichi": false
      },
      {
        "name": "player2",
        "position": "left",
        "origin": 25000,
        "changed": 0,
        "point": 25000,
        "riichi": false
      },
      {
        "name": "player3",
        "position": "bottom",
        "origin": 25000,
        "changed": 0,
        "point": 25000,
        "riichi": false
      },
      {
        "name": "player4",
        "position": "right",
        "origin": 25000,
        "changed": 0,
        "point": 25000,
        "riichi": false
      }
    ]
  },
  {
    "date": "12/8/2019, 12:57:21 AM",
    "gameDetail": {
      "round": "西",
      "hand": 2,
      "repeater": 9,
      "deposit": 0,
      "dealer": "right"
    },
    "handDetail": {
      "state": "流局"
    },
    "playerDetail": [
      {
        "name": "player1",
        "position": "top",
        "origin": 25000,
        "changed": 0,
        "point": 25000,
        "riichi": false
      },
      {
        "name": "player2",
        "position": "left",
        "origin": 25000,
        "changed": 0,
        "point": 25000,
        "riichi": false
      },
      {
        "name": "player3",
        "position": "bottom",
        "origin": 25000,
        "changed": 0,
        "point": 25000,
        "riichi": false
      },
      {
        "name": "player4",
        "position": "right",
        "origin": 25000,
        "changed": 0,
        "point": 25000,
        "riichi": false
      }
    ]
  },
  {
    "date": "12/8/2019, 12:57:24 AM",
    "gameDetail": {
      "round": "西",
      "hand": 3,
      "repeater": 10,
      "deposit": 0,
      "dealer": "top"
    },
    "handDetail": {
      "state": "流局"
    },
    "playerDetail": [
      {
        "name": "player1",
        "position": "top",
        "origin": 25000,
        "changed": 0,
        "point": 25000,
        "riichi": false
      },
      {
        "name": "player2",
        "position": "left",
        "origin": 25000,
        "changed": 0,
        "point": 25000,
        "riichi": false
      },
      {
        "name": "player3",
        "position": "bottom",
        "origin": 25000,
        "changed": 0,
        "point": 25000,
        "riichi": false
      },
      {
        "name": "player4",
        "position": "right",
        "origin": 25000,
        "changed": 0,
        "point": 25000,
        "riichi": false
      }
    ]
  },
  {
    "date": "12/8/2019, 12:57:27 AM",
    "gameDetail": {
      "round": "西",
      "hand": 4,
      "repeater": 11,
      "deposit": 0,
      "dealer": "left"
    },
    "handDetail": {
      "state": "流局"
    },
    "playerDetail": [
      {
        "name": "player1",
        "position": "top",
        "origin": 25000,
        "changed": 0,
        "point": 25000,
        "riichi": false
      },
      {
        "name": "player2",
        "position": "left",
        "origin": 25000,
        "changed": 0,
        "point": 25000,
        "riichi": false
      },
      {
        "name": "player3",
        "position": "bottom",
        "origin": 25000,
        "changed": 0,
        "point": 25000,
        "riichi": false
      },
      {
        "name": "player4",
        "position": "right",
        "origin": 25000,
        "changed": 0,
        "point": 25000,
        "riichi": false
      }
    ]
  },
  {
    "date": "12/8/2019, 12:57:31 AM",
    "gameDetail": {
      "round": "北",
      "hand": 1,
      "repeater": 12,
      "deposit": 0,
      "dealer": "bottom"
    },
    "handDetail": {
      "state": "流局"
    },
    "playerDetail": [
      {
        "name": "player1",
        "position": "top",
        "origin": 25000,
        "changed": 0,
        "point": 25000,
        "riichi": false
      },
      {
        "name": "player2",
        "position": "left",
        "origin": 25000,
        "changed": 0,
        "point": 25000,
        "riichi": false
      },
      {
        "name": "player3",
        "position": "bottom",
        "origin": 25000,
        "changed": 0,
        "point": 25000,
        "riichi": false
      },
      {
        "name": "player4",
        "position": "right",
        "origin": 25000,
        "changed": 0,
        "point": 25000,
        "riichi": false
      }
    ]
  },
  {
    "date": "12/8/2019, 12:57:31 AM",
    "playerDetail": [
      {
        "name": "player3",
        "position": "bottom",
        "rank": 1,
        "point": 25000,
        "score": -5,
        "ranking_score": 40,
        "total_score": 35
      },
      {
        "name": "player4",
        "position": "right",
        "rank": 2,
        "point": 25000,
        "score": -5,
        "ranking_score": 10,
        "total_score": 5
      },
      {
        "name": "player1",
        "position": "top",
        "rank": 3,
        "point": 25000,
        "score": -5,
        "ranking_score": -10,
        "total_score": -15
      },
      {
        "name": "player2",
        "position": "left",
        "rank": 4,
        "point": 25000,
        "score": -5,
        "ranking_score": -20,
        "total_score": -25
      }
    ]
  }
]
