[
  {
    "date": "12/8/2019, 12:50:58 AM",
    "starting_player": "bottom",
    "gameDetail": {
      "round": "東",
      "hand": 1,
      "repeater": 0,
      "deposit": 0,
      "dealer": "bottom"
    },
    "playerDetail": [
      {
        "name": "player1",
        "position": "top",
        "origin": 25000,
        "point": 25000
      },
      {
        "name": "player2",
        "position": "left",
        "origin": 25000,
        "point": 25000
      },
      {
        "name": "player3",
        "position": "bottom",
        "origin": 25000,
        "point": 25000
      },
      {
        "name": "player4",
        "position": "right",
        "origin": 25000,
        "point": 25000
      }
    ]
  },
  {
    "date": "12/8/2019, 12:51:03 AM",
    "gameDetail": {
      "round": "東",
      "hand": 1,
      "repeater": 0,
      "deposit": 0,
      "dealer": "bottom"
    },
    "handDetail": {
      "state": "自摸",
      "han_fu": "1_30",
      "point": 1500
    },
    "playerDetail": [
      {
        "name": "player1",
        "position": "top",
        "origin": 25000,
        "changed": -500,
        "point": 24500,
        "riichi": false
      },
      {
        "name": "player2",
        "position": "left",
        "origin": 25000,
        "changed": -500,
        "point": 24500,
        "riichi": false
      },
      {
        "name": "player3",
        "position": "bottom",
        "origin": 25000,
        "changed": 1500,
        "point": 26500,
        "riichi": false
      },
      {
        "name": "player4",
        "position": "right",
        "origin": 25000,
        "changed": -500,
        "point": 24500,
        "riichi": false
      }
    ]
  },
  {
    "date": "12/8/2019, 12:51:09 AM",
    "gameDetail": {
      "round": "東",
      "hand": 1,
      "repeater": 1,
      "deposit": 0,
      "dealer": "bottom"
    },
    "handDetail": {
      "state": "和了",
      "han_fu": "跳滿",
      "point": 18300
    },
    "playerDetail": [
      {
        "name": "player1",
        "position": "top",
        "origin": 24500,
        "changed": -18300,
        "point": 6200,
        "riichi": false
      },
      {
        "name": "player2",
        "position": "left",
        "origin": 24500,
        "changed": 0,
        "point": 24500,
        "riichi": false
      },
      {
        "name": "player3",
        "position": "bottom",
        "origin": 26500,
        "changed": 18300,
        "point": 44800,
        "riichi": true
      },
      {
        "name": "player4",
        "position": "right",
        "origin": 24500,
        "changed": 0,
        "point": 24500,
        "riichi": false
      }
    ]
  },
  {
    "date": "12/8/2019, 12:51:17 AM",
    "gameDetail": {
      "round": "東",
      "hand": 1,
      "repeater": 2,
      "deposit": 0,
      "dealer": "bottom"
    },
    "handDetail": {
      "state": "和了",
      "han_fu": "三倍滿",
      "point": 36600
    },
    "playerDetail": [
      {
        "name": "player1",
        "position": "top",
        "origin": 6200,
        "changed": 0,
        "point": 6200,
        "riichi": false
      },
      {
        "name": "player2",
        "position": "left",
        "origin": 24500,
        "changed": 0,
        "point": 24500,
        "riichi": false
      },
      {
        "name": "player3",
        "position": "bottom",
        "origin": 44800,
        "changed": 36600,
        "point": 81400,
        "riichi": false
      },
      {
        "name": "player4",
        "position": "right",
        "origin": 24500,
        "changed": -36600,
        "point": -12100,
        "riichi": false
      }
    ]
  },
  {
    "date": "12/8/2019, 12:51:19 AM",
    "playerDetail": [
      {
        "name": "player3",
        "position": "bottom",
        "rank": 1,
        "point": 81400,
        "score": 51.4,
        "ranking_score": 40,
        "total_score": 91.4
      },
      {
        "name": "player2",
        "position": "left",
        "rank": 2,
        "point": 24500,
        "score": -5.5,
        "ranking_score": 10,
        "total_score": 4.5
      },
      {
        "name": "player1",
        "position": "top",
        "rank": 3,
        "point": 6200,
        "score": -23.8,
        "ranking_score": -10,
        "total_score": -33.8
      },
      {
        "name": "player4",
        "position": "right",
        "rank": 4,
        "point": -12100,
        "score": -42.1,
        "ranking_score": -20,
        "total_score": -62.1
      }
    ]
  }
]
