[
  {
    "date": "12/1/2019, 12:57:37 PM",
    "starting_player": "top",
    "gameDetail": {
      "round": "東",
      "hand": 1,
      "repeater": 0,
      "deposit": 0,
      "dealer": "top"
    },
    "playerDetail": [
      {
        "name": "player1",
        "position": "top",
        "origin": 25000,
        "point": 25000
      },
      {
        "name": "player2",
        "position": "left",
        "origin": 25000,
        "point": 25000
      },
      {
        "name": "player3",
        "position": "bottom",
        "origin": 25000,
        "point": 25000
      },
      {
        "name": "player4",
        "position": "right",
        "origin": 25000,
        "point": 25000
      }
    ]
  },
  {
    "date": "12/1/2019, 12:59:18 PM",
    "gameDetail": {
      "round": "東",
      "hand": 1,
      "repeater": 0,
      "deposit": 0,
      "dealer": "top"
    },
    "handDetail": {
      "state": "自摸",
      "han_fu": "1_30",
      "point": 1100
    },
    "playerDetail": [
      {
        "name": "player1",
        "position": "top",
        "origin": 25000,
        "changed": -500,
        "point": 24500,
        "riichi": false
      },
      {
        "name": "player2",
        "position": "left",
        "origin": 25000,
        "changed": -300,
        "point": 24700,
        "riichi": false
      },
      {
        "name": "player3",
        "position": "bottom",
        "origin": 25000,
        "changed": 1100,
        "point": 26100,
        "riichi": false
      },
      {
        "name": "player4",
        "position": "right",
        "origin": 25000,
        "changed": -300,
        "point": 24700,
        "riichi": false
      }
    ]
  },
  {
    "date": "12/1/2019, 12:59:20 PM",
    "gameDetail": {
      "round": "東",
      "hand": 2,
      "repeater": 0,
      "deposit": 0,
      "dealer": "left"
    },
    "handDetail": {
      "state": "自摸",
      "han_fu": "1_30",
      "point": 1100
    },
    "playerDetail": [
      {
        "name": "player1",
        "position": "top",
        "origin": 24500,
        "changed": -300,
        "point": 24200,
        "riichi": false
      },
      {
        "name": "player2",
        "position": "left",
        "origin": 24700,
        "changed": -500,
        "point": 24200,
        "riichi": false
      },
      {
        "name": "player3",
        "position": "bottom",
        "origin": 26100,
        "changed": 1100,
        "point": 27200,
        "riichi": false
      },
      {
        "name": "player4",
        "position": "right",
        "origin": 24700,
        "changed": -300,
        "point": 24400,
        "riichi": false
      }
    ]
  },
  {
    "date": "12/1/2019, 12:59:22 PM",
    "gameDetail": {
      "round": "東",
      "hand": 3,
      "repeater": 0,
      "deposit": 0,
      "dealer": "bottom"
    },
    "handDetail": {
      "state": "自摸",
      "han_fu": "1_30",
      "point": 1500
    },
    "playerDetail": [
      {
        "name": "player1",
        "position": "top",
        "origin": 24200,
        "changed": -500,
        "point": 23700,
        "riichi": false
      },
      {
        "name": "player2",
        "position": "left",
        "origin": 24200,
        "changed": -500,
        "point": 23700,
        "riichi": false
      },
      {
        "name": "player3",
        "position": "bottom",
        "origin": 27200,
        "changed": 1500,
        "point": 28700,
        "riichi": false
      },
      {
        "name": "player4",
        "position": "right",
        "origin": 24400,
        "changed": -500,
        "point": 23900,
        "riichi": false
      }
    ]
  },
  {
    "date": "12/1/2019, 12:59:25 PM",
    "gameDetail": {
      "round": "東",
      "hand": 3,
      "repeater": 1,
      "deposit": 0,
      "dealer": "bottom"
    },
    "handDetail": {
      "state": "自摸",
      "han_fu": "1_30",
      "point": 1400
    },
    "playerDetail": [
      {
        "name": "player1",
        "position": "top",
        "origin": 23700,
        "changed": -400,
        "point": 23300,
        "riichi": false
      },
      {
        "name": "player2",
        "position": "left",
        "origin": 23700,
        "changed": -400,
        "point": 23300,
        "riichi": false
      },
      {
        "name": "player3",
        "position": "bottom",
        "origin": 28700,
        "changed": -600,
        "point": 28100,
        "riichi": false
      },
      {
        "name": "player4",
        "position": "right",
        "origin": 23900,
        "changed": 1400,
        "point": 25300,
        "riichi": false
      }
    ]
  },
  {
    "date": "12/1/2019, 12:59:30 PM",
    "gameDetail": {
      "round": "東",
      "hand": 4,
      "repeater": 0,
      "deposit": 0,
      "dealer": "right"
    },
    "handDetail": {
      "state": "和了",
      "han_fu": "役滿",
      "point": 32000
    },
    "playerDetail": [
      {
        "name": "player1",
        "position": "top",
        "origin": 23300,
        "changed": 0,
        "point": 23300,
        "riichi": false
      },
      {
        "name": "player2",
        "position": "left",
        "origin": 23300,
        "changed": 32000,
        "point": 55300,
        "riichi": false
      },
      {
        "name": "player3",
        "position": "bottom",
        "origin": 28100,
        "changed": 0,
        "point": 28100,
        "riichi": false
      },
      {
        "name": "player4",
        "position": "right",
        "origin": 25300,
        "changed": -32000,
        "point": -6700,
        "riichi": false
      }
    ]
  },
  {
    "date": "12/1/2019, 12:59:30 PM",
    "playerDetail": [
      {
        "name": "player2",
        "position": "left",
        "rank": 1,
        "point": 55300,
        "score": 25.3,
        "ranking_score": 40,
        "total_score": 65.3
      },
      {
        "name": "player3",
        "position": "bottom",
        "rank": 2,
        "point": 28100,
        "score": -1.9,
        "ranking_score": 10,
        "total_score": 8.1
      },
      {
        "name": "player1",
        "position": "top",
        "rank": 3,
        "point": 23300,
        "score": -6.7,
        "ranking_score": -10,
        "total_score": -16.7
      },
      {
        "name": "player4",
        "position": "right",
        "rank": 4,
        "point": -6700,
        "score": -36.7,
        "ranking_score": -20,
        "total_score": -56.7
      }
    ]
  }
]
