[
  {
    "date": "12/1/2019, 3:10:05 PM",
    "starting_player": "bottom",
    "gameDetail": {
      "round": "東",
      "hand": 1,
      "repeater": 0,
      "deposit": 0,
      "dealer": "bottom"
    },
    "playerDetail": [
      {
        "name": "player1",
        "position": "top",
        "origin": 25000,
        "point": 25000
      },
      {
        "name": "player2",
        "position": "left",
        "origin": 25000,
        "point": 25000
      },
      {
        "name": "player3",
        "position": "bottom",
        "origin": 25000,
        "point": 25000
      },
      {
        "name": "player4",
        "position": "right",
        "origin": 25000,
        "point": 25000
      }
    ]
  },
  {
    "date": "12/1/2019, 3:10:25 PM",
    "gameDetail": {
      "round": "東",
      "hand": 1,
      "repeater": 0,
      "deposit": 0,
      "dealer": "bottom"
    },
    "handDetail": {
      "state": "自摸",
      "han_fu": "役滿",
      "point": 48000
    },
    "playerDetail": [
      {
        "name": "player1",
        "position": "top",
        "origin": 25000,
        "changed": -16000,
        "point": 9000,
        "riichi": false
      },
      {
        "name": "player2",
        "position": "left",
        "origin": 25000,
        "changed": -16000,
        "point": 9000,
        "riichi": false
      },
      {
        "name": "player3",
        "position": "bottom",
        "origin": 25000,
        "changed": 48000,
        "point": 73000,
        "riichi": false
      },
      {
        "name": "player4",
        "position": "right",
        "origin": 25000,
        "changed": -16000,
        "point": 9000,
        "riichi": false
      }
    ]
  },
  {
    "date": "12/1/2019, 3:10:31 PM",
    "gameDetail": {
      "round": "東",
      "hand": 1,
      "repeater": 1,
      "deposit": 0,
      "dealer": "bottom"
    },
    "handDetail": {
      "state": "自摸",
      "han_fu": "三倍滿",
      "point": 36300
    },
    "playerDetail": [
      {
        "name": "player1",
        "position": "top",
        "origin": 9000,
        "changed": -12100,
        "point": -3100,
        "riichi": false
      },
      {
        "name": "player2",
        "position": "left",
        "origin": 9000,
        "changed": -12100,
        "point": -3100,
        "riichi": false
      },
      {
        "name": "player3",
        "position": "bottom",
        "origin": 73000,
        "changed": 36300,
        "point": 109300,
        "riichi": false
      },
      {
        "name": "player4",
        "position": "right",
        "origin": 9000,
        "changed": -12100,
        "point": -3100,
        "riichi": false
      }
    ]
  },
  {
    "date": "12/1/2019, 3:10:31 PM",
    "playerDetail": [
      {
        "name": "player3",
        "position": "bottom",
        "rank": 1,
        "point": 109300,
        "score": 79.3,
        "ranking_score": 40,
        "total_score": 119.3
      },
      {
        "name": "player4",
        "position": "right",
        "rank": 2,
        "point": -3100,
        "score": -33.1,
        "ranking_score": 10,
        "total_score": -23.1
      },
      {
        "name": "player1",
        "position": "top",
        "rank": 3,
        "point": -3100,
        "score": -33.1,
        "ranking_score": -10,
        "total_score": -43.1
      },
      {
        "name": "player2",
        "position": "left",
        "rank": 4,
        "point": -3100,
        "score": -33.1,
        "ranking_score": -20,
        "total_score": -53.1
      }
    ]
  }
]
