[
  {
    "date": "12/8/2019, 12:28:44 AM",
    "starting_player": "bottom",
    "gameDetail": {
      "round": "東",
      "hand": 1,
      "repeater": 0,
      "deposit": 0,
      "dealer": "bottom"
    },
    "playerDetail": [
      {
        "name": "player1",
        "position": "top",
        "origin": 25000,
        "point": 25000
      },
      {
        "name": "player2",
        "position": "left",
        "origin": 25000,
        "point": 25000
      },
      {
        "name": "player3",
        "position": "bottom",
        "origin": 25000,
        "point": 25000
      },
      {
        "name": "player4",
        "position": "right",
        "origin": 25000,
        "point": 25000
      }
    ]
  },
  {
    "date": "12/8/2019, 12:28:47 AM",
    "gameDetail": {
      "round": "東",
      "hand": 1,
      "repeater": 0,
      "deposit": 0,
      "dealer": "bottom"
    },
    "handDetail": {
      "state": "自摸",
      "han_fu": "跳滿",
      "point": 18000
    },
    "playerDetail": [
      {
        "name": "player1",
        "position": "top",
        "origin": 25000,
        "changed": -6000,
        "point": 19000,
        "riichi": false
      },
      {
        "name": "player2",
        "position": "left",
        "origin": 25000,
        "changed": -6000,
        "point": 19000,
        "riichi": false
      },
      {
        "name": "player3",
        "position": "bottom",
        "origin": 25000,
        "changed": 18000,
        "point": 43000,
        "riichi": false
      },
      {
        "name": "player4",
        "position": "right",
        "origin": 25000,
        "changed": -6000,
        "point": 19000,
        "riichi": false
      }
    ]
  },
  {
    "date": "12/8/2019, 12:28:50 AM",
    "gameDetail": {
      "round": "東",
      "hand": 1,
      "repeater": 1,
      "deposit": 0,
      "dealer": "bottom"
    },
    "handDetail": {
      "state": "自摸",
      "han_fu": "三倍滿",
      "point": 36300
    },
    "playerDetail": [
      {
        "name": "player1",
        "position": "top",
        "origin": 19000,
        "changed": -12100,
        "point": 6900,
        "riichi": false
      },
      {
        "name": "player2",
        "position": "left",
        "origin": 19000,
        "changed": -12100,
        "point": 6900,
        "riichi": false
      },
      {
        "name": "player3",
        "position": "bottom",
        "origin": 43000,
        "changed": 36300,
        "point": 79300,
        "riichi": false
      },
      {
        "name": "player4",
        "position": "right",
        "origin": 19000,
        "changed": -12100,
        "point": 6900,
        "riichi": false
      }
    ]
  },
  {
    "date": "12/8/2019, 12:28:57 AM",
    "gameDetail": {
      "round": "東",
      "hand": 1,
      "repeater": 2,
      "deposit": 0,
      "dealer": "bottom"
    },
    "handDetail": {
      "state": "自摸",
      "han_fu": "三倍滿",
      "point": 36600
    },
    "playerDetail": [
      {
        "name": "player1",
        "position": "top",
        "origin": 6900,
        "changed": -12200,
        "point": -5300,
        "riichi": false
      },
      {
        "name": "player2",
        "position": "left",
        "origin": 6900,
        "changed": -12200,
        "point": -5300,
        "riichi": false
      },
      {
        "name": "player3",
        "position": "bottom",
        "origin": 79300,
        "changed": 36600,
        "point": 115900,
        "riichi": false
      },
      {
        "name": "player4",
        "position": "right",
        "origin": 6900,
        "changed": -12200,
        "point": -5300,
        "riichi": false
      }
    ]
  },
  {
    "date": "12/8/2019, 12:29:00 AM",
    "playerDetail": [
      {
        "name": "player3",
        "position": "bottom",
        "rank": 1,
        "point": 115900,
        "score": 85.9,
        "ranking_score": 40,
        "total_score": 125.9
      },
      {
        "name": "player4",
        "position": "right",
        "rank": 2,
        "point": -5300,
        "score": -35.3,
        "ranking_score": 10,
        "total_score": -25.3
      },
      {
        "name": "player1",
        "position": "top",
        "rank": 3,
        "point": -5300,
        "score": -35.3,
        "ranking_score": -10,
        "total_score": -45.3
      },
      {
        "name": "player2",
        "position": "left",
        "rank": 4,
        "point": -5300,
        "score": -35.3,
        "ranking_score": -20,
        "total_score": -55.3
      }
    ]
  }
]
