[
  {
    "date": "12/15/2019, 4:19:35 PM",
    "starting_player": "bottom",
    "gameDetail": {
      "round": "東",
      "hand": 1,
      "repeater": 0,
      "deposit": 0,
      "dealer": "bottom"
    },
    "playerDetail": [
      {
        "name": "player1",
        "position": "top",
        "origin": 25000,
        "point": 25000
      },
      {
        "name": "player2",
        "position": "left",
        "origin": 25000,
        "point": 25000
      },
      {
        "name": "player3",
        "position": "bottom",
        "origin": 25000,
        "point": 25000
      },
      {
        "name": "player4",
        "position": "right",
        "origin": 25000,
        "point": 25000
      }
    ]
  },
  {
    "date": "12/15/2019, 4:19:39 PM",
    "gameDetail": {
      "round": "東",
      "hand": 1,
      "repeater": 0,
      "deposit": 0,
      "dealer": "bottom"
    },
    "handDetail": {
      "state": "自摸",
      "han_fu": "1_30",
      "point": 1500
    },
    "playerDetail": [
      {
        "name": "player1",
        "position": "top",
        "origin": 25000,
        "changed": -500,
        "point": 24500,
        "riichi": false
      },
      {
        "name": "player2",
        "position": "left",
        "origin": 25000,
        "changed": -500,
        "point": 24500,
        "riichi": false
      },
      {
        "name": "player3",
        "position": "bottom",
        "origin": 25000,
        "changed": 1500,
        "point": 26500,
        "riichi": false
      },
      {
        "name": "player4",
        "position": "right",
        "origin": 25000,
        "changed": -500,
        "point": 24500,
        "riichi": false
      }
    ]
  },
  {
    "date": "12/15/2019, 4:19:44 PM",
    "gameDetail": {
      "round": "東",
      "hand": 1,
      "repeater": 1,
      "deposit": 0,
      "dealer": "bottom"
    },
    "handDetail": {
      "state": "和了",
      "han_fu": "3_30",
      "point": 6100
    },
    "playerDetail": [
      {
        "name": "player1",
        "position": "top",
        "origin": 24500,
        "changed": -6100,
        "point": 18400,
        "riichi": false
      },
      {
        "name": "player2",
        "position": "left",
        "origin": 24500,
        "changed": 0,
        "point": 24500,
        "riichi": false
      },
      {
        "name": "player3",
        "position": "bottom",
        "origin": 26500,
        "changed": 6100,
        "point": 32600,
        "riichi": false
      },
      {
        "name": "player4",
        "position": "right",
        "origin": 24500,
        "changed": 0,
        "point": 24500,
        "riichi": false
      }
    ]
  },
  {
    "date": "12/15/2019, 4:19:52 PM",
    "gameDetail": {
      "round": "東",
      "hand": 1,
      "repeater": 2,
      "deposit": 0,
      "dealer": "bottom"
    },
    "handDetail": {
      "state": "和了",
      "han_fu": "跳滿",
      "point": 18600
    },
    "playerDetail": [
      {
        "name": "player1",
        "position": "top",
        "origin": 18400,
        "changed": -18600,
        "point": -200,
        "riichi": false
      },
      {
        "name": "player2",
        "position": "left",
        "origin": 24500,
        "changed": 0,
        "point": 24500,
        "riichi": false
      },
      {
        "name": "player3",
        "position": "bottom",
        "origin": 32600,
        "changed": 18600,
        "point": 51200,
        "riichi": false
      },
      {
        "name": "player4",
        "position": "right",
        "origin": 24500,
        "changed": 0,
        "point": 24500,
        "riichi": false
      }
    ]
  },
  {
    "date": "12/15/2019, 4:19:54 PM",
    "playerDetail": [
      {
        "name": "player1",
        "position": "top",
        "rank": 4,
        "point": -200,
        "score": -30.2,
        "ranking_score": -20,
        "total_score": -50.2
      },
      {
        "name": "player2",
        "position": "left",
        "rank": 3,
        "point": 24500,
        "score": -5.5,
        "ranking_score": -10,
        "total_score": -15.5
      },
      {
        "name": "player3",
        "position": "bottom",
        "rank": 1,
        "point": 51200,
        "score": 21.2,
        "ranking_score": 40,
        "total_score": 61.2
      },
      {
        "name": "player4",
        "position": "right",
        "rank": 2,
        "point": 24500,
        "score": -5.5,
        "ranking_score": 10,
        "total_score": 4.5
      }
    ]
  }
]
